AGenerate_process_drbg/AGenerate_process_drbg.sim/sim_1/behav/xsim/DRBG_tb.vcd
$date
   Fri Feb 21 12:16:44 2025
$end
$version
  2018.2
$end
$timescale
  1ps
$end
$scope module DRBG_tb $end
$var reg 1 ! clk $end
$var reg 1 " rst $end
$var reg 32 # state_handle [31:0] $end
$var reg 32 $ requested_number_of_bits [31:0] $end
$var reg 32 % max_number_of_bits_per_request [31:0] $end
$var reg 32 & requested_security_strength [31:0] $end
$var reg 32 ' security_strength [31:0] $end
$var reg 32 ( additional_input_length [31:0] $end
$var reg 32 ) max_additional_input_length [31:0] $end
$var reg 1 * prediction_resistance_request $end
$var reg 1 + prediction_resistance_flag $end
$var reg 1 , reseed_required_flag $end
$var reg 32 - pseudorandom_bits [31:0] $end
$var reg 1 . error_flag $end
$var reg 1 / success $end
$scope module uut $end
$var wire 1 0 clk $end
$var wire 1 1 rst $end
$var wire 32 2 state_handle [31:0] $end
$var wire 32 3 requested_number_of_bits [31:0] $end
$var wire 32 4 max_number_of_bits_per_request [31:0] $end
$var wire 32 5 requested_security_strength [31:0] $end
$var wire 32 6 security_strength [31:0] $end
$var wire 32 7 additional_input_length [31:0] $end
$var wire 32 8 max_additional_input_length [31:0] $end
$var wire 1 9 prediction_resistance_request $end
$var wire 1 : prediction_resistance_flag $end
$var wire 1 ; reseed_required_flag $end
$var reg 32 - pseudorandom_bits [31:0] $end
$var reg 1 . error_flag $end
$var reg 1 / success $end
$var reg 2 < status [1:0] $end
$var reg 32 = new_working_state [31:0] $end
$scope function reseed_function $end
$var reg 2 > reseed_function [1:0] $end
$var reg 32 ? handle [31:0] $end
$var reg 1 @ pr_request $end
$upscope $end
$scope function generate_algorithm $end
$var reg 2 > generate_algorithm [1:0] $end
$var reg 32 ? working_state [31:0] $end
$var reg 32 A req_bits [31:0] $end
$upscope $end
$upscope $end
$upscope $end
$enddefinitions $end
#0
$dumpvars
1!
1"
b1 #
b10000000 $
b100000000 %
b1110000 &
b10000000 '
b0 (
b1000000 )
0*
1+
0,
b0 -
1.
0/
10
11
b1 2
b10000000 3
b100000000 4
b1110000 5
b10000000 6
b0 7
b1000000 8
09
1:
0;
b1 <
bx =
b0z >
b0 ?
0@
b0 A
$end
#100
0!
00
#200
1!
10
#300
0!
00
#400
1!
10
#500
0!
00
#600
1!
10
#700
0!
00
#800
1!
10
#900
0!
00
#1000
1!
10
#1100
0!
00
#1200
1!
10
#1300
0!
00
#1400
1!
10
#1500
0!
00
#1600
1!
10
#1700
0!
00
#1800
1!
10
#1900
0!
00
#2000
1!
10
#2100
0!
00
#2200
1!
10
#2300
0!
00
#2400
1!
10
#2500
0!
00
#2600
1!
10
#2700
0!
00
#2800
1!
10
#2900
0!
00
#3000
1!
10
#3100
0!
00
#3200
1!
10
#3300
0!
00
#3400
1!
10
#3500
0!
00
#3600
1!
10
#3700
0!
00
#3800
1!
10
#3900
0!
00
#4000
1!
10
#4100
0!
00
#4200
1!
10
#4300
0!
00
#4400
1!
10
#4500
0!
00
#4600
1!
10
#4700
0!
00
#4800
1!
10
#4900
0!
00
#5000
1!
10
#5100
0!
00
#5200
1!
10
#5300
0!
00
#5400
1!
10
#5500
0!
00
#5600
1!
10
#5700
0!
00
#5800
1!
10
#5900
0!
00
#6000
1!
10
#6100
0!
00
#6200
1!
10
#6300
0!
00
#6400
1!
10
#6500
0!
00
#6600
1!
10
#6700
0!
00
#6800
1!
10
#6900
0!
00
#7000
1!
10
#7100
0!
00
#7200
1!
10
#7300
0!
00
#7400
1!
10
#7500
0!
00
#7600
1!
10
#7700
0!
00
#7800
1!
10
#7900
0!
00
#8000
1!
10
#8100
0!
00
#8200
1!
10
#8300
0!
00
#8400
1!
10
#8500
0!
00
#8600
1!
10
#8700
0!
00
#8800
1!
10
#8900
0!
00
#9000
1!
10
#9100
0!
00
#9200
1!
10
#9300
0!
00
#9400
1!
10
#9500
0!
00
#9600
1!
10
#9700
0!
00
#9800
1!
10
#9900
0!
00
#10000
1!
0"
b10 -
0.
1/
10
01
b0 <
#10100
0!
00
#10200
1!
10
#10300
0!
00
#10400
1!
10
#10500
0!
00
#10600
1!
10
#10700
0!
00
#10800
1!
10
#10900
0!
00
#11000
1!
10
#11100
0!
00
#11200
1!
10
#11300
0!
00
#11400
1!
10
#11500
0!
00
#11600
1!
10
#11700
0!
00
#11800
1!
10
#11900
0!
00
#12000
1!
10
#12100
0!
00
#12200
1!
10
#12300
0!
00
#12400
1!
10
#12500
0!
00
#12600
1!
10
#12700
0!
00
#12800
1!
10
#12900
0!
00
#13000
1!
10
#13100
0!
00
#13200
1!
10
#13300
0!
00
#13400
1!
10
#13500
0!
00
#13600
1!
10
#13700
0!
00
#13800
1!
10
#13900
0!
00
#14000
1!
10
#14100
0!
00
#14200
1!
10
#14300
0!
00
#14400
1!
10
#14500
0!
00
#14600
1!
10
#14700
0!
00
#14800
1!
10
#14900
0!
00
#15000
1!
10
#15100
0!
00
#15200
1!
10
#15300
0!
00
#15400
1!
10
#15500
0!
00
#15600
1!
10
#15700
0!
00
#15800
1!
10
#15900
0!
00
#16000
1!
10
#16100
0!
00
#16200
1!
10
#16300
0!
00
#16400
1!
10
#16500
0!
00
#16600
1!
10
#16700
0!
00
#16800
1!
10
#16900
0!
00
#17000
1!
10
#17100
0!
00
#17200
1!
10
#17300
0!
00
#17400
1!
10
#17500
0!
00
#17600
1!
10
#17700
0!
00
#17800
1!
10
#17900
0!
00
#18000
1!
10
#18100
0!
00
#18200
1!
10
#18300
0!
00
#18400
1!
10
#18500
0!
00
#18600
1!
10
#18700
0!
00
#18800
1!
10
#18900
0!
00
#19000
1!
10
#19100
0!
00
#19200
1!
10
#19300
0!
00
#19400
1!
10
#19500
0!
00
#19600
1!
10
#19700
0!
00
#19800
1!
10
#19900
0!
00
#20000
1!
10
#20100
0!
00
#20200
1!
10
#20300
0!
00
#20400
1!
10
#20500
0!
00
#20600
1!
10
#20700
0!
00
#20800
1!
10
#20900
0!
00
#21000
1!
10
#21100
0!
00
#21200
1!
10
#21300
0!
00
#21400
1!
10
#21500
0!
00
#21600
1!
10
#21700
0!
00
#21800
1!
10
#21900
0!
00
#22000
1!
10
#22100
0!
00
#22200
1!
10
#22300
0!
00
#22400
1!
10
#22500
0!
00
#22600
1!
10
#22700
0!
00
#22800
1!
10
#22900
0!
00
#23000
1!
10
#23100
0!
00
#23200
1!
10
#23300
0!
00
#23400
1!
10
#23500
0!
00
#23600
1!
10
#23700
0!
00
#23800
1!
10
#23900
0!
00
#24000
1!
10
#24100
0!
00
#24200
1!
10
#24300
0!
00
#24400
1!
10
#24500
0!
00
#24600
1!
10
#24700
0!
00
#24800
1!
10
#24900
0!
00
#25000
1!
10
#25100
0!
00
#25200
1!
10
#25300
0!
00
#25400
1!
10
#25500
0!
00
#25600
1!
10
#25700
0!
00
#25800
1!
10
#25900
0!
00
#26000
1!
10
#26100
0!
00
#26200
1!
10
#26300
0!
00
#26400
1!
10
#26500
0!
00
#26600
1!
10
#26700
0!
00
#26800
1!
10
#26900
0!
00
#27000
1!
10
#27100
0!
00
#27200
1!
10
#27300
0!
00
#27400
1!
10
#27500
0!
00
#27600
1!
10
#27700
0!
00
#27800
1!
10
#27900
0!
00
#28000
1!
10
#28100
0!
00
#28200
1!
10
#28300
0!
00
#28400
1!
10
#28500
0!
00
#28600
1!
10
#28700
0!
00
#28800
1!
10
#28900
0!
00
#29000
1!
10
#29100
0!
00
#29200
1!
10
#29300
0!
00
#29400
1!
10
#29500
0!
00
#29600
1!
10
#29700
0!
00
#29800
1!
10
#29900
0!
00
#30000
1!
b1000000000 $
b0 -
1.
0/
10
b1000000000 3
b1 <
#30100
0!
00
#30200
1!
1.
10
#30300
0!
00
#30400
1!
1.
10
#30500
0!
00
#30600
1!
1.
10
#30700
0!
00
#30800
1!
1.
10
#30900
0!
00
#31000
1!
1.
10
#31100
0!
00
#31200
1!
1.
10
#31300
0!
00
#31400
1!
1.
10
#31500
0!
00
#31600
1!
1.
10
#31700
0!
00
#31800
1!
1.
10
#31900
0!
00
#32000
1!
1.
10
#32100
0!
00
#32200
1!
1.
10
#32300
0!
00
#32400
1!
1.
10
#32500
0!
00
#32600
1!
1.
10
#32700
0!
00
#32800
1!
1.
10
#32900
0!
00
#33000
1!
1.
10
#33100
0!
00
#33200
1!
1.
10
#33300
0!
00
#33400
1!
1.
10
#33500
0!
00
#33600
1!
1.
10
#33700
0!
00
#33800
1!
1.
10
#33900
0!
00
#34000
1!
1.
10
#34100
0!
00
#34200
1!
1.
10
#34300
0!
00
#34400
1!
1.
10
#34500
0!
00
#34600
1!
1.
10
#34700
0!
00
#34800
1!
1.
10
#34900
0!
00
#35000
1!
1.
10
#35100
0!
00
#35200
1!
1.
10
#35300
0!
00
#35400
1!
1.
10
#35500
0!
00
#35600
1!
1.
10
#35700
0!
00
#35800
1!
1.
10
#35900
0!
00
#36000
1!
1.
10
#36100
0!
00
#36200
1!
1.
10
#36300
0!
00
#36400
1!
1.
10
#36500
0!
00
#36600
1!
1.
10
#36700
0!
00
#36800
1!
1.
10
#36900
0!
00
#37000
1!
1.
10
#37100
0!
00
#37200
1!
1.
10
#37300
0!
00
#37400
1!
1.
10
#37500
0!
00
#37600
1!
1.
10
#37700
0!
00
#37800
1!
1.
10
#37900
0!
00
#38000
1!
1.
10
#38100
0!
00
#38200
1!
1.
10
#38300
0!
00
#38400
1!
1.
10
#38500
0!
00
#38600
1!
1.
10
#38700
0!
00
#38800
1!
1.
10
#38900
0!
00
#39000
1!
1.
10
#39100
0!
00
#39200
1!
1.
10
#39300
0!
00
#39400
1!
1.
10
#39500
0!
00
#39600
1!
1.
10
#39700
0!
00
#39800
1!
1.
10
#39900
0!
00
#40000
1!
1.
10
#40100
0!
00
#40200
1!
1.
10
#40300
0!
00
#40400
1!
1.
10
#40500
0!
00
#40600
1!
1.
10
#40700
0!
00
#40800
1!
1.
10
#40900
0!
00
#41000
1!
1.
10
#41100
0!
00
#41200
1!
1.
10
#41300
0!
00
#41400
1!
1.
10
#41500
0!
00
#41600
1!
1.
10
#41700
0!
00
#41800
1!
1.
10
#41900
0!
00
#42000
1!
1.
10
#42100
0!
00
#42200
1!
1.
10
#42300
0!
00
#42400
1!
1.
10
#42500
0!
00
#42600
1!
1.
10
#42700
0!
00
#42800
1!
1.
10
#42900
0!
00
#43000
1!
1.
10
#43100
0!
00
#43200
1!
1.
10
#43300
0!
00
#43400
1!
1.
10
#43500
0!
00
#43600
1!
1.
10
#43700
0!
00
#43800
1!
1.
10
#43900
0!
00
#44000
1!
1.
10
#44100
0!
00
#44200
1!
1.
10
#44300
0!
00
#44400
1!
1.
10
#44500
0!
00
#44600
1!
1.
10
#44700
0!
00
#44800
1!
1.
10
#44900
0!
00
#45000
1!
1.
10
#45100
0!
00
#45200
1!
1.
10
#45300
0!
00
#45400
1!
1.
10
#45500
0!
00
#45600
1!
1.
10
#45700
0!
00
#45800
1!
1.
10
#45900
0!
00
#46000
1!
1.
10
#46100
0!
00
#46200
1!
1.
10
#46300
0!
00
#46400
1!
1.
10
#46500
0!
00
#46600
1!
1.
10
#46700
0!
00
#46800
1!
1.
10
#46900
0!
00
#47000
1!
1.
10
#47100
0!
00
#47200
1!
1.
10
#47300
0!
00
#47400
1!
1.
10
#47500
0!
00
#47600
1!
1.
10
#47700
0!
00
#47800
1!
1.
10
#47900
0!
00
#48000
1!
1.
10
#48100
0!
00
#48200
1!
1.
10
#48300
0!
00
#48400
1!
1.
10
#48500
0!
00
#48600
1!
1.
10
#48700
0!
00
#48800
1!
1.
10
#48900
0!
00
#49000
1!
1.
10
#49100
0!
00
#49200
1!
1.
10
#49300
0!
00
#49400
1!
1.
10
#49500
0!
00
#49600
1!
1.
10
#49700
0!
00
#49800
1!
1.
10
#49900
0!
00
#50000
1!
b10000000 $
b100000000 &
1.
10
b10000000 3
b100000000 5
#50100
0!
00
#50200
1!
1.
10
#50300
0!
00
#50400
1!
1.
10
#50500
0!
00
#50600
1!
1.
10
#50700
0!
00
#50800
1!
1.
10
#50900
0!
00
#51000
1!
1.
10
#51100
0!
00
#51200
1!
1.
10
#51300
0!
00
#51400
1!
1.
10
#51500
0!
00
#51600
1!
1.
10
#51700
0!
00
#51800
1!
1.
10
#51900
0!
00
#52000
1!
1.
10
#52100
0!
00
#52200
1!
1.
10
#52300
0!
00
#52400
1!
1.
10
#52500
0!
00
#52600
1!
1.
10
#52700
0!
00
#52800
1!
1.
10
#52900
0!
00
#53000
1!
1.
10
#53100
0!
00
#53200
1!
1.
10
#53300
0!
00
#53400
1!
1.
10
#53500
0!
00
#53600
1!
1.
10
#53700
0!
00
#53800
1!
1.
10
#53900
0!
00
#54000
1!
1.
10
#54100
0!
00
#54200
1!
1.
10
#54300
0!
00
#54400
1!
1.
10
#54500
0!
00
#54600
1!
1.
10
#54700
0!
00
#54800
1!
1.
10
#54900
0!
00
#55000
1!
1.
10
#55100
0!
00
#55200
1!
1.
10
#55300
0!
00
#55400
1!
1.
10
#55500
0!
00
#55600
1!
1.
10
#55700
0!
00
#55800
1!
1.
10
#55900
0!
00
#56000
1!
1.
10
#56100
0!
00
#56200
1!
1.
10
#56300
0!
00
#56400
1!
1.
10
#56500
0!
00
#56600
1!
1.
10
#56700
0!
00
#56800
1!
1.
10
#56900
0!
00
#57000
1!
1.
10
#57100
0!
00
#57200
1!
1.
10
#57300
0!
00
#57400
1!
1.
10
#57500
0!
00
#57600
1!
1.
10
#57700
0!
00
#57800
1!
1.
10
#57900
0!
00
#58000
1!
1.
10
#58100
0!
00
#58200
1!
1.
10
#58300
0!
00
#58400
1!
1.
10
#58500
0!
00
#58600
1!
1.
10
#58700
0!
00
#58800
1!
1.
10
#58900
0!
00
#59000
1!
1.
10
#59100
0!
00
#59200
1!
1.
10
#59300
0!
00
#59400
1!
1.
10
#59500
0!
00
#59600
1!
1.
10
#59700
0!
00
#59800
1!
1.
10
#59900
0!
00
#60000
1!
1.
10
#60100
0!
00
#60200
1!
1.
10
#60300
0!
00
#60400
1!
1.
10
#60500
0!
00
#60600
1!
1.
10
#60700
0!
00
#60800
1!
1.
10
#60900
0!
00
#61000
1!
1.
10
#61100
0!
00
#61200
1!
1.
10
#61300
0!
00
#61400
1!
1.
10
#61500
0!
00
#61600
1!
1.
10
#61700
0!
00
#61800
1!
1.
10
#61900
0!
00
#62000
1!
1.
10
#62100
0!
00
#62200
1!
1.
10
#62300
0!
00
#62400
1!
1.
10
#62500
0!
00
#62600
1!
1.
10
#62700
0!
00
#62800
1!
1.
10
#62900
0!
00
#63000
1!
1.
10
#63100
0!
00
#63200
1!
1.
10
#63300
0!
00
#63400
1!
1.
10
#63500
0!
00
#63600
1!
1.
10
#63700
0!
00
#63800
1!
1.
10
#63900
0!
00
#64000
1!
1.
10
#64100
0!
00
#64200
1!
1.
10
#64300
0!
00
#64400
1!
1.
10
#64500
0!
00
#64600
1!
1.
10
#64700
0!
00
#64800
1!
1.
10
#64900
0!
00
#65000
1!
1.
10
#65100
0!
00
#65200
1!
1.
10
#65300
0!
00
#65400
1!
1.
10
#65500
0!
00
#65600
1!
1.
10
#65700
0!
00
#65800
1!
1.
10
#65900
0!
00
#66000
1!
1.
10
#66100
0!
00
#66200
1!
1.
10
#66300
0!
00
#66400
1!
1.
10
#66500
0!
00
#66600
1!
1.
10
#66700
0!
00
#66800
1!
1.
10
#66900
0!
00
#67000
1!
1.
10
#67100
0!
00
#67200
1!
1.
10
#67300
0!
00
#67400
1!
1.
10
#67500
0!
00
#67600
1!
1.
10
#67700
0!
00
#67800
1!
1.
10
#67900
0!
00
#68000
1!
1.
10
#68100
0!
00
#68200
1!
1.
10
#68300
0!
00
#68400
1!
1.
10
#68500
0!
00
#68600
1!
1.
10
#68700
0!
00
#68800
1!
1.
10
#68900
0!
00
#69000
1!
1.
10
#69100
0!
00
#69200
1!
1.
10
#69300
0!
00
#69400
1!
1.
10
#69500
0!
00
#69600
1!
1.
10
#69700
0!
00
#69800
1!
1.
10
#69900
0!
00
#70000
1!
b1110000 &
b10000000 (
1.
10
b1110000 5
b10000000 7
#70100
0!
00
#70200
1!
1.
10
#70300
0!
00
#70400
1!
1.
10
#70500
0!
00
#70600
1!
1.
10
#70700
0!
00
#70800
1!
1.
10
#70900
0!
00
#71000
1!
1.
10
#71100
0!
00
#71200
1!
1.
10
#71300
0!
00
#71400
1!
1.
10
#71500
0!
00
#71600
1!
1.
10
#71700
0!
00
#71800
1!
1.
10
#71900
0!
00
#72000
1!
1.
10
#72100
0!
00
#72200
1!
1.
10
#72300
0!
00
#72400
1!
1.
10
#72500
0!
00
#72600
1!
1.
10
#72700
0!
00
#72800
1!
1.
10
#72900
0!
00
#73000
1!
1.
10
#73100
0!
00
#73200
1!
1.
10
#73300
0!
00
#73400
1!
1.
10
#73500
0!
00
#73600
1!
1.
10
#73700
0!
00
#73800
1!
1.
10
#73900
0!
00
#74000
1!
1.
10
#74100
0!
00
#74200
1!
1.
10
#74300
0!
00
#74400
1!
1.
10
#74500
0!
00
#74600
1!
1.
10
#74700
0!
00
#74800
1!
1.
10
#74900
0!
00
#75000
1!
1.
10
#75100
0!
00
#75200
1!
1.
10
#75300
0!
00
#75400
1!
1.
10
#75500
0!
00
#75600
1!
1.
10
#75700
0!
00
#75800
1!
1.
10
#75900
0!
00
#76000
1!
1.
10
#76100
0!
00
#76200
1!
1.
10
#76300
0!
00
#76400
1!
1.
10
#76500
0!
00
#76600
1!
1.
10
#76700
0!
00
#76800
1!
1.
10
#76900
0!
00
#77000
1!
1.
10
#77100
0!
00
#77200
1!
1.
10
#77300
0!
00
#77400
1!
1.
10
#77500
0!
00
#77600
1!
1.
10
#77700
0!
00
#77800
1!
1.
10
#77900
0!
00
#78000
1!
1.
10
#78100
0!
00
#78200
1!
1.
10
#78300
0!
00
#78400
1!
1.
10
#78500
0!
00
#78600
1!
1.
10
#78700
0!
00
#78800
1!
1.
10
#78900
0!
00
#79000
1!
1.
10
#79100
0!
00
#79200
1!
1.
10
#79300
0!
00
#79400
1!
1.
10
#79500
0!
00
#79600
1!
1.
10
#79700
0!
00
#79800
1!
1.
10
#79900
0!
00
#80000
1!
1.
10
#80100
0!
00
#80200
1!
1.
10
#80300
0!
00
#80400
1!
1.
10
#80500
0!
00
#80600
1!
1.
10
#80700
0!
00
#80800
1!
1.
10
#80900
0!
00
#81000
1!
1.
10
#81100
0!
00
#81200
1!
1.
10
#81300
0!
00
#81400
1!
1.
10
#81500
0!
00
#81600
1!
1.
10
#81700
0!
00
#81800
1!
1.
10
#81900
0!
00
#82000
1!
1.
10
#82100
0!
00
#82200
1!
1.
10
#82300
0!
00
#82400
1!
1.
10
#82500
0!
00
#82600
1!
1.
10
#82700
0!
00
#82800
1!
1.
10
#82900
0!
00
#83000
1!
1.
10
#83100
0!
00
#83200
1!
1.
10
#83300
0!
00
#83400
1!
1.
10
#83500
0!
00
#83600
1!
1.
10
#83700
0!
00
#83800
1!
1.
10
#83900
0!
00
#84000
1!
1.
10
#84100
0!
00
#84200
1!
1.
10
#84300
0!
00
#84400
1!
1.
10
#84500
0!
00
#84600
1!
1.
10
#84700
0!
00
#84800
1!
1.
10
#84900
0!
00
#85000
1!
1.
10
#85100
0!
00
#85200
1!
1.
10
#85300
0!
00
#85400
1!
1.
10
#85500
0!
00
#85600
1!
1.
10
#85700
0!
00
#85800
1!
1.
10
#85900
0!
00
#86000
1!
1.
10
#86100
0!
00
#86200
1!
1.
10
#86300
0!
00
#86400
1!
1.
10
#86500
0!
00
#86600
1!
1.
10
#86700
0!
00
#86800
1!
1.
10
#86900
0!
00
#87000
1!
1.
10
#87100
0!
00
#87200
1!
1.
10
#87300
0!
00
#87400
1!
1.
10
#87500
0!
00
#87600
1!
1.
10
#87700
0!
00
#87800
1!
1.
10
#87900
0!
00
#88000
1!
1.
10
#88100
0!
00
#88200
1!
1.
10
#88300
0!
00
#88400
1!
1.
10
#88500
0!
00
#88600
1!
1.
10
#88700
0!
00
#88800
1!
1.
10
#88900
0!
00
#89000
1!
1.
10
#89100
0!
00
#89200
1!
1.
10
#89300
0!
00
#89400
1!
1.
10
#89500
0!
00
#89600
1!
1.
10
#89700
0!
00
#89800
1!
1.
10
#89900
0!
00
#90000
1!
b0 (
1*
b10 -
0.
1/
10
b0 7
19
b0 <
b10 =
