entropy/entropy.sim/sim_1/behav/xsim/SanityCheck_tb.vcd
$date
   Sun Mar 30 05:48:56 2025
$end
$version
  2018.2
$end
$timescale
  1ps
$end
$scope module SanityCheck_tb $end
$var reg 1 ! clk $end
$var reg 1 " rst $end
$var reg 1 # start $end
$var reg 1 $ test_passed $end
$var reg 1 % done $end
$var parameter 0 & N $end
$var parameter 0 ' CLK_PERIOD $end
$scope module dut $end
$var wire 1 ( clk $end
$var wire 1 ) rst $end
$var wire 1 * start $end
$var reg 1 $ test_passed $end
$var reg 1 % done $end
$var reg 3 + state [2:0] $end
$var reg 3 , next_state [2:0] $end
$var reg 32 - X_R $end
$var reg 32 . X_C $end
$var reg 32 / X_max $end
$var reg 32 0 i $end
$var reg 32 1 j $end
$var real 32 2 p $end
$var real 32 3 probability $end
$var parameter 0 4 N $end
$var parameter 0 5 ALPHA $end
$scope begin Block87_4 $end
$upscope $end
$scope begin Block99_5 $end
$upscope $end
$scope begin Block116_6 $end
$var real 32 6 bin_coeff $end
$var reg 32 7 k $end
$upscope $end
$upscope $end
$scope begin Block22_8 $end
$var reg 32 8 i $end
$var reg 32 9 j $end
$upscope $end
$upscope $end
$enddefinitions $end
#0
$dumpvars
0!
1"
0#
x$
x%
b1111101000 &
b1010 '
0(
1)
0*
b0 +
b0 ,
b0 -
b0 .
b0 /
b0 0
b0 1
r0.5 2
r0 3
b1111101000 4
r5e-06 5
r0 6
b0 7
b0 8
b0 9
$end
#100
1!
0$
0%
1(
b0 0
#200
0!
0(
#300
1!
1(
b0 0
#400
0!
0(
#500
1!
1(
b0 0
#600
0!
0(
#700
1!
1(
b0 0
#800
0!
0(
#900
1!
1(
b0 0
#1000
0!
0(
#1100
1!
1(
b0 0
#1200
0!
0(
#1300
1!
1(
b0 0
#1400
0!
0(
#1500
1!
1(
b0 0
#1600
0!
0(
#1700
1!
1(
b0 0
#1800
0!
0(
#1900
1!
1(
b0 0
#2000
0!
0(
#2100
1!
1(
b0 0
#2200
0!
0(
#2300
1!
1(
b0 0
#2400
0!
0(
#2500
1!
1(
b0 0
#2600
0!
0(
#2700
1!
1(
b0 0
#2800
0!
0(
#2900
1!
1(
b0 0
#3000
0!
0(
#3100
1!
1(
b0 0
#3200
0!
0(
#3300
1!
1(
b0 0
#3400
0!
0(
#3500
1!
1(
b0 0
#3600
0!
0(
#3700
1!
1(
b0 0
#3800
0!
0(
#3900
1!
1(
b0 0
#4000
0!
0(
#4100
1!
1(
b0 0
#4200
0!
0(
#4300
1!
1(
b0 0
#4400
0!
0(
#4500
1!
1(
b0 0
#4600
0!
0(
#4700
1!
1(
b0 0
#4800
0!
0(
#4900
1!
1(
b0 0
#5000
0!
0(
#5100
1!
1(
b0 0
#5200
0!
0(
#5300
1!
1(
b0 0
#5400
0!
0(
#5500
1!
1(
b0 0
#5600
0!
0(
#5700
1!
1(
b0 0
#5800
0!
0(
#5900
1!
1(
b0 0
#6000
0!
0(
#6100
1!
1(
b0 0
#6200
0!
0(
#6300
1!
1(
b0 0
#6400
0!
0(
#6500
1!
1(
b0 0
#6600
0!
0(
#6700
1!
1(
b0 0
#6800
0!
0(
#6900
1!
1(
b0 0
#7000
0!
0(
#7100
1!
1(
b0 0
#7200
0!
0(
#7300
1!
1(
b0 0
#7400
0!
0(
#7500
1!
1(
b0 0
#7600
0!
0(
#7700
1!
1(
b0 0
#7800
0!
0(
#7900
1!
1(
b0 0
#8000
0!
0(
#8100
1!
1(
b0 0
#8200
0!
0(
#8300
1!
1(
b0 0
#8400
0!
0(
#8500
1!
1(
b0 0
#8600
0!
0(
#8700
1!
1(
b0 0
#8800
0!
0(
#8900
1!
1(
b0 0
#9000
0!
0(
#9100
1!
1(
b0 0
#9200
0!
0(
#9300
1!
1(
b0 0
#9400
0!
0(
#9500
1!
1(
b0 0
#9600
0!
0(
#9700
1!
1(
b0 0
#9800
0!
0(
#9900
1!
1(
b0 0
#10000
0!
0"
1#
0(
0)
1*
b1 ,
b1111101000 8
b1111101000 9
#10100
1!
1(
b1 +
b0 0
#10200
0!
0(
#10300
1!
1(
b111111000 -
b1 0
b1111101000 1
#10400
0!
0(
#10500
1!
1(
b111111010 -
b10 0
b1111101000 1
#10600
0!
0(
#10700
1!
1(
b11 0
b1111101000 1
#10800
0!
0(
#10900
1!
1(
b100 0
b1111101000 1
#11000
0!
0(
#11100
1!
1(
b101 0
b1111101000 1
#11200
0!
0(
#11300
1!
1(
b110 0
b1111101000 1
#11400
0!
0(
#11500
1!
1(
b111 0
b1111101000 1
#11600
0!
0(
#11700
1!
1(
b1000 0
b1111101000 1
#11800
0!
0(
#11900
1!
1(
b1001 0
b1111101000 1
#12000
0!
0(
#12100
1!
1(
b1010 0
b1111101000 1
#12200
0!
0(
#12300
1!
1(
b1011 0
b1111101000 1
#12400
0!
0(
#12500
1!
1(
b111111011 -
b1100 0
b1111101000 1
#12600
0!
0(
#12700
1!
1(
b1101 0
b1111101000 1
#12800
0!
0(
#12900
1!
1(
b1110 0
b1111101000 1
#13000
0!
0(
#13100
1!
1(
b1111 0
b1111101000 1
#13200
0!
0(
#13300
1!
1(
b10000 0
b1111101000 1
#13400
0!
0(
#13500
1!
1(
b10001 0
b1111101000 1
#13600
0!
0(
#13700
1!
1(
b10010 0
b1111101000 1
#13800
0!
0(
#13900
1!
1(
b10011 0
b1111101000 1
#14000
0!
0(
#14100
1!
1(
b10100 0
b1111101000 1
#14200
0!
0(
#14300
1!
1(
b10101 0
b1111101000 1
#14400
0!
0(
#14500
1!
1(
b10110 0
b1111101000 1
#14600
0!
0(
#14700
1!
1(
b10111 0
b1111101000 1
#14800
0!
0(
#14900
1!
1(
b11000 0
b1111101000 1
#15000
0!
0(
#15100
1!
1(
b11001 0
b1111101000 1
#15200
0!
0(
#15300
1!
1(
b11010 0
b1111101000 1
#15400
0!
0(
#15500
1!
1(
b11011 0
b1111101000 1
#15600
0!
0(
#15700
1!
1(
b11100 0
b1111101000 1
#15800
0!
0(
#15900
1!
1(
b11101 0
b1111101000 1
#16000
0!
0(
#16100
1!
1(
b11110 0
b1111101000 1
#16200
0!
0(
#16300
1!
1(
b11111 0
b1111101000 1
#16400
0!
0(
#16500
1!
1(
b100000 0
b1111101000 1
#16600
0!
0(
#16700
1!
1(
b100001 0
b1111101000 1
#16800
0!
0(
#16900
1!
1(
b100010 0
b1111101000 1
#17000
0!
0(
#17100
1!
1(
b100011 0
b1111101000 1
#17200
0!
0(
#17300
1!
1(
b100100 0
b1111101000 1
#17400
0!
0(
#17500
1!
1(
b100101 0
b1111101000 1
#17600
0!
0(
#17700
1!
1(
b100110 0
b1111101000 1
#17800
0!
0(
#17900
1!
1(
b100111 0
b1111101000 1
#18000
0!
0(
#18100
1!
1(
b101000 0
b1111101000 1
#18200
0!
0(
#18300
1!
1(
b101001 0
b1111101000 1
#18400
0!
0(
#18500
1!
1(
b101010 0
b1111101000 1
#18600
0!
0(
#18700
1!
1(
b101011 0
b1111101000 1
#18800
0!
0(
#18900
1!
1(
b101100 0
b1111101000 1
#19000
0!
0(
#19100
1!
1(
b101101 0
b1111101000 1
#19200
0!
0(
#19300
1!
1(
b101110 0
b1111101000 1
#19400
0!
0(
#19500
1!
1(
b101111 0
b1111101000 1
#19600
0!
0(
#19700
1!
1(
b110000 0
b1111101000 1
#19800
0!
0(
#19900
1!
1(
b110001 0
b1111101000 1
#20000
0!
0(
#20100
1!
1(
b110010 0
b1111101000 1
#20200
0!
0(
#20300
1!
1(
b110011 0
b1111101000 1
#20400
0!
0(
#20500
1!
1(
b110100 0
b1111101000 1
#20600
0!
0(
#20700
1!
1(
b110101 0
b1111101000 1
#20800
0!
0(
#20900
1!
1(
b110110 0
b1111101000 1
#21000
0!
0(
#21100
1!
1(
b110111 0
b1111101000 1
#21200
0!
0(
#21300
1!
1(
b111000 0
b1111101000 1
#21400
0!
0(
#21500
1!
1(
b111001 0
b1111101000 1
#21600
0!
0(
#21700
1!
1(
b111010 0
b1111101000 1
#21800
0!
0(
#21900
1!
1(
b111011 0
b1111101000 1
#22000
0!
0(
#22100
1!
1(
b111100 0
b1111101000 1
#22200
0!
0(
#22300
1!
1(
b111101 0
b1111101000 1
#22400
0!
0(
#22500
1!
1(
b111110 0
b1111101000 1
#22600
0!
0(
#22700
1!
1(
b111111 0
b1111101000 1
#22800
0!
0(
#22900
1!
1(
b1000000 0
b1111101000 1
#23000
0!
0(
#23100
1!
1(
b1000001 0
b1111101000 1
#23200
0!
0(
#23300
1!
1(
b1000010 0
b1111101000 1
#23400
0!
0(
#23500
1!
1(
b1000011 0
b1111101000 1
#23600
0!
0(
#23700
1!
1(
b1000100 0
b1111101000 1
#23800
0!
0(
#23900
1!
1(
b1000101 0
b1111101000 1
#24000
0!
0(
#24100
1!
1(
b1000110 0
b1111101000 1
#24200
0!
0(
#24300
1!
1(
b1000111 0
b1111101000 1
#24400
0!
0(
#24500
1!
1(
b1001000 0
b1111101000 1
#24600
0!
0(
#24700
1!
1(
b1001001 0
b1111101000 1
#24800
0!
0(
#24900
1!
1(
b1001010 0
b1111101000 1
#25000
0!
0(
#25100
1!
1(
b111111100 -
b1001011 0
b1111101000 1
#25200
0!
0(
#25300
1!
1(
b1001100 0
b1111101000 1
#25400
0!
0(
#25500
1!
1(
b1001101 0
b1111101000 1
#25600
0!
0(
#25700
1!
1(
b1001110 0
b1111101000 1
#25800
0!
0(
#25900
1!
1(
b1001111 0
b1111101000 1
#26000
0!
0(
#26100
1!
1(
b1010000 0
b1111101000 1
#26200
0!
0(
#26300
1!
1(
b1010001 0
b1111101000 1
#26400
0!
0(
#26500
1!
1(
b1010010 0
b1111101000 1
#26600
0!
0(
#26700
1!
1(
b1010011 0
b1111101000 1
#26800
0!
0(
#26900
1!
1(
b1010100 0
b1111101000 1
#27000
0!
0(
#27100
1!
1(
b1010101 0
b1111101000 1
#27200
0!
0(
#27300
1!
1(
b1010110 0
b1111101000 1
#27400
0!
0(
#27500
1!
1(
b1010111 0
b1111101000 1
#27600
0!
0(
#27700
1!
1(
b1011000 0
b1111101000 1
#27800
0!
0(
#27900
1!
1(
b1011001 0
b1111101000 1
#28000
0!
0(
#28100
1!
1(
b1011010 0
b1111101000 1
#28200
0!
0(
#28300
1!
1(
b1011011 0
b1111101000 1
#28400
0!
0(
#28500
1!
1(
b1011100 0
b1111101000 1
#28600
0!
0(
#28700
1!
1(
b1011101 0
b1111101000 1
#28800
0!
0(
#28900
1!
1(
b1011110 0
b1111101000 1
#29000
0!
0(
#29100
1!
1(
b1011111 0
b1111101000 1
#29200
0!
0(
#29300
1!
1(
b1100000 0
b1111101000 1
#29400
0!
0(
#29500
1!
1(
b1100001 0
b1111101000 1
#29600
0!
0(
#29700
1!
1(
b1100010 0
b1111101000 1
#29800
0!
0(
#29900
1!
1(
b1100011 0
b1111101000 1
#30000
0!
0(
#30100
1!
1(
b1100100 0
b1111101000 1
#30200
0!
0(
#30300
1!
1(
b1100101 0
b1111101000 1
#30400
0!
0(
#30500
1!
1(
b1100110 0
b1111101000 1
#30600
0!
0(
#30700
1!
1(
b1100111 0
b1111101000 1
#30800
0!
0(
#30900
1!
1(
b1101000 0
b1111101000 1
#31000
0!
0(
#31100
1!
1(
b1101001 0
b1111101000 1
#31200
0!
0(
#31300
1!
1(
b1101010 0
b1111101000 1
#31400
0!
0(
#31500
1!
1(
b1101011 0
b1111101000 1
#31600
0!
0(
#31700
1!
1(
b1101100 0
b1111101000 1
#31800
0!
0(
#31900
1!
1(
b1101101 0
b1111101000 1
#32000
0!
0(
#32100
1!
1(
b1101110 0
b1111101000 1
#32200
0!
0(
#32300
1!
1(
b1101111 0
b1111101000 1
#32400
0!
0(
#32500
1!
1(
b1110000 0
b1111101000 1
#32600
0!
0(
#32700
1!
1(
b1110001 0
b1111101000 1
#32800
0!
0(
#32900
1!
1(
b1110010 0
b1111101000 1
#33000
0!
0(
#33100
1!
1(
b1110011 0
b1111101000 1
#33200
0!
0(
#33300
1!
1(
b1110100 0
b1111101000 1
#33400
0!
0(
#33500
1!
1(
b1110101 0
b1111101000 1
#33600
0!
0(
#33700
1!
1(
b1110110 0
b1111101000 1
#33800
0!
0(
#33900
1!
1(
b1110111 0
b1111101000 1
#34000
0!
0(
#34100
1!
1(
b1111000 0
b1111101000 1
#34200
0!
0(
#34300
1!
1(
b1111001 0
b1111101000 1
#34400
0!
0(
#34500
1!
1(
b1111010 0
b1111101000 1
#34600
0!
0(
#34700
1!
1(
b1111011 0
b1111101000 1
#34800
0!
0(
#34900
1!
1(
b1111100 0
b1111101000 1
#35000
0!
0(
#35100
1!
1(
b1111101 0
b1111101000 1
#35200
0!
0(
#35300
1!
1(
b1111110 0
b1111101000 1
#35400
0!
0(
#35500
1!
1(
b1111111 0
b1111101000 1
#35600
0!
0(
#35700
1!
1(
b10000000 0
b1111101000 1
#35800
0!
0(
#35900
1!
1(
b10000001 0
b1111101000 1
#36000
0!
0(
#36100
1!
1(
b10000010 0
b1111101000 1
#36200
0!
0(
#36300
1!
1(
b10000011 0
b1111101000 1
#36400
0!
0(
#36500
1!
1(
b10000100 0
b1111101000 1
#36600
0!
0(
#36700
1!
1(
b10000101 0
b1111101000 1
#36800
0!
0(
#36900
1!
1(
b10000110 0
b1111101000 1
#37000
0!
0(
#37100
1!
1(
b10000111 0
b1111101000 1
#37200
0!
0(
#37300
1!
1(
b10001000 0
b1111101000 1
#37400
0!
0(
#37500
1!
1(
b10001001 0
b1111101000 1
#37600
0!
0(
#37700
1!
1(
b10001010 0
b1111101000 1
#37800
0!
0(
#37900
1!
1(
b10001011 0
b1111101000 1
#38000
0!
0(
#38100
1!
1(
b10001100 0
b1111101000 1
#38200
0!
0(
#38300
1!
1(
b10001101 0
b1111101000 1
#38400
0!
0(
#38500
1!
1(
b10001110 0
b1111101000 1
#38600
0!
0(
#38700
1!
1(
b10001111 0
b1111101000 1
#38800
0!
0(
#38900
1!
1(
b10010000 0
b1111101000 1
#39000
0!
0(
#39100
1!
1(
b10010001 0
b1111101000 1
#39200
0!
0(
#39300
1!
1(
b10010010 0
b1111101000 1
#39400
0!
0(
#39500
1!
1(
b10010011 0
b1111101000 1
#39600
0!
0(
#39700
1!
1(
b10010100 0
b1111101000 1
#39800
0!
0(
#39900
1!
1(
b10010101 0
b1111101000 1
#40000
0!
0(
#40100
1!
1(
b10010110 0
b1111101000 1
#40200
0!
0(
#40300
1!
1(
b10010111 0
b1111101000 1
#40400
0!
0(
#40500
1!
1(
b10011000 0
b1111101000 1
#40600
0!
0(
#40700
1!
1(
b10011001 0
b1111101000 1
#40800
0!
0(
#40900
1!
1(
b10011010 0
b1111101000 1
#41000
0!
0(
#41100
1!
1(
b10011011 0
b1111101000 1
#41200
0!
0(
#41300
1!
1(
b10011100 0
b1111101000 1
#41400
0!
0(
#41500
1!
1(
b10011101 0
b1111101000 1
#41600
0!
0(
#41700
1!
1(
b10011110 0
b1111101000 1
#41800
0!
0(
#41900
1!
1(
b10011111 0
b1111101000 1
#42000
0!
0(
#42100
1!
1(
b10100000 0
b1111101000 1
#42200
0!
0(
#42300
1!
1(
b10100001 0
b1111101000 1
#42400
0!
0(
#42500
1!
1(
b10100010 0
b1111101000 1
#42600
0!
0(
#42700
1!
1(
b10100011 0
b1111101000 1
#42800
0!
0(
#42900
1!
1(
b10100100 0
b1111101000 1
#43000
0!
0(
#43100
1!
1(
b10100101 0
b1111101000 1
#43200
0!
0(
#43300
1!
1(
b10100110 0
b1111101000 1
#43400
0!
0(
#43500
1!
1(
b10100111 0
b1111101000 1
#43600
0!
0(
#43700
1!
1(
b10101000 0
b1111101000 1
#43800
0!
0(
#43900
1!
1(
b10101001 0
b1111101000 1
#44000
0!
0(
#44100
1!
1(
b10101010 0
b1111101000 1
#44200
0!
0(
#44300
1!
1(
b10101011 0
b1111101000 1
#44400
0!
0(
#44500
1!
1(
b10101100 0
b1111101000 1
#44600
0!
0(
#44700
1!
1(
b10101101 0
b1111101000 1
#44800
0!
0(
#44900
1!
1(
b10101110 0
b1111101000 1
#45000
0!
0(
#45100
1!
1(
b10101111 0
b1111101000 1
#45200
0!
0(
#45300
1!
1(
b10110000 0
b1111101000 1
#45400
0!
0(
#45500
1!
1(
b10110001 0
b1111101000 1
#45600
0!
0(
#45700
1!
1(
b10110010 0
b1111101000 1
#45800
0!
0(
#45900
1!
1(
b10110011 0
b1111101000 1
#46000
0!
0(
#46100
1!
1(
b10110100 0
b1111101000 1
#46200
0!
0(
#46300
1!
1(
b10110101 0
b1111101000 1
#46400
0!
0(
#46500
1!
1(
b10110110 0
b1111101000 1
#46600
0!
0(
#46700
1!
1(
b10110111 0
b1111101000 1
#46800
0!
0(
#46900
1!
1(
b10111000 0
b1111101000 1
#47000
0!
0(
#47100
1!
1(
b10111001 0
b1111101000 1
#47200
0!
0(
#47300
1!
1(
b10111010 0
b1111101000 1
#47400
0!
0(
#47500
1!
1(
b10111011 0
b1111101000 1
#47600
0!
0(
#47700
1!
1(
b10111100 0
b1111101000 1
#47800
0!
0(
#47900
1!
1(
b10111101 0
b1111101000 1
#48000
0!
0(
#48100
1!
1(
b10111110 0
b1111101000 1
#48200
0!
0(
#48300
1!
1(
b10111111 0
b1111101000 1
#48400
0!
0(
#48500
1!
1(
b11000000 0
b1111101000 1
#48600
0!
0(
#48700
1!
1(
b11000001 0
b1111101000 1
#48800
0!
0(
#48900
1!
1(
b11000010 0
b1111101000 1
#49000
0!
0(
#49100
1!
1(
b11000011 0
b1111101000 1
#49200
0!
0(
#49300
1!
1(
b11000100 0
b1111101000 1
#49400
0!
0(
#49500
1!
1(
b11000101 0
b1111101000 1
#49600
0!
0(
#49700
1!
1(
b11000110 0
b1111101000 1
#49800
0!
0(
#49900
1!
1(
b11000111 0
b1111101000 1
#50000
0!
0(
#50100
1!
1(
b11001000 0
b1111101000 1
#50200
0!
0(
#50300
1!
1(
b11001001 0
b1111101000 1
#50400
0!
0(
#50500
1!
1(
b11001010 0
b1111101000 1
#50600
0!
0(
#50700
1!
1(
b11001011 0
b1111101000 1
#50800
0!
0(
#50900
1!
1(
b11001100 0
b1111101000 1
#51000
0!
0(
#51100
1!
1(
b11001101 0
b1111101000 1
#51200
0!
0(
#51300
1!
1(
b11001110 0
b1111101000 1
#51400
0!
0(
#51500
1!
1(
b11001111 0
b1111101000 1
#51600
0!
0(
#51700
1!
1(
b11010000 0
b1111101000 1
#51800
0!
0(
#51900
1!
1(
b11010001 0
b1111101000 1
#52000
0!
0(
#52100
1!
1(
b11010010 0
b1111101000 1
#52200
0!
0(
#52300
1!
1(
b11010011 0
b1111101000 1
#52400
0!
0(
#52500
1!
1(
b11010100 0
b1111101000 1
#52600
0!
0(
#52700
1!
1(
b11010101 0
b1111101000 1
#52800
0!
0(
#52900
1!
1(
b11010110 0
b1111101000 1
#53000
0!
0(
#53100
1!
1(
b11010111 0
b1111101000 1
#53200
0!
0(
#53300
1!
1(
b11011000 0
b1111101000 1
#53400
0!
0(
#53500
1!
1(
b11011001 0
b1111101000 1
#53600
0!
0(
#53700
1!
1(
b11011010 0
b1111101000 1
#53800
0!
0(
#53900
1!
1(
b11011011 0
b1111101000 1
#54000
0!
0(
#54100
1!
1(
b11011100 0
b1111101000 1
#54200
0!
0(
#54300
1!
1(
b11011101 0
b1111101000 1
#54400
0!
0(
#54500
1!
1(
b11011110 0
b1111101000 1
#54600
0!
0(
#54700
1!
1(
b11011111 0
b1111101000 1
#54800
0!
0(
#54900
1!
1(
b11100000 0
b1111101000 1
#55000
0!
0(
#55100
1!
1(
b11100001 0
b1111101000 1
#55200
0!
0(
#55300
1!
1(
b11100010 0
b1111101000 1
#55400
0!
0(
#55500
1!
1(
b11100011 0
b1111101000 1
#55600
0!
0(
#55700
1!
1(
b11100100 0
b1111101000 1
#55800
0!
0(
#55900
1!
1(
b11100101 0
b1111101000 1
#56000
0!
0(
#56100
1!
1(
b11100110 0
b1111101000 1
#56200
0!
0(
#56300
1!
1(
b11100111 0
b1111101000 1
#56400
0!
0(
#56500
1!
1(
b11101000 0
b1111101000 1
#56600
0!
0(
#56700
1!
1(
b11101001 0
b1111101000 1
#56800
0!
0(
#56900
1!
1(
b11101010 0
b1111101000 1
#57000
0!
0(
#57100
1!
1(
b11101011 0
b1111101000 1
#57200
0!
0(
#57300
1!
1(
b11101100 0
b1111101000 1
#57400
0!
0(
#57500
1!
1(
b11101101 0
b1111101000 1
#57600
0!
0(
#57700
1!
1(
b11101110 0
b1111101000 1
#57800
0!
0(
#57900
1!
1(
b11101111 0
b1111101000 1
#58000
0!
0(
#58100
1!
1(
b11110000 0
b1111101000 1
#58200
0!
0(
#58300
1!
1(
b11110001 0
b1111101000 1
#58400
0!
0(
#58500
1!
1(
b11110010 0
b1111101000 1
#58600
0!
0(
#58700
1!
1(
b11110011 0
b1111101000 1
#58800
0!
0(
#58900
1!
1(
b11110100 0
b1111101000 1
#59000
0!
0(
#59100
1!
1(
b11110101 0
b1111101000 1
#59200
0!
0(
#59300
1!
1(
b11110110 0
b1111101000 1
#59400
0!
0(
#59500
1!
1(
b11110111 0
b1111101000 1
#59600
0!
0(
#59700
1!
1(
b11111000 0
b1111101000 1
#59800
0!
0(
#59900
1!
1(
b11111001 0
b1111101000 1
#60000
0!
0(
#60100
1!
1(
b11111010 0
b1111101000 1
#60200
0!
0(
#60300
1!
1(
b11111011 0
b1111101000 1
#60400
0!
0(
#60500
1!
1(
b11111100 0
b1111101000 1
#60600
0!
0(
#60700
1!
1(
b11111101 0
b1111101000 1
#60800
0!
0(
#60900
1!
1(
b11111110 0
b1111101000 1
#61000
0!
0(
#61100
1!
1(
b11111111 0
b1111101000 1
#61200
0!
0(
#61300
1!
1(
b100000000 0
b1111101000 1
#61400
0!
0(
#61500
1!
1(
b100000001 0
b1111101000 1
#61600
0!
0(
#61700
1!
1(
b100000010 0
b1111101000 1
#61800
0!
0(
#61900
1!
1(
b100000011 0
b1111101000 1
#62000
0!
0(
#62100
1!
1(
b100000100 0
b1111101000 1
#62200
0!
0(
#62300
1!
1(
b100000101 0
b1111101000 1
#62400
0!
0(
#62500
1!
1(
b100000110 0
b1111101000 1
#62600
0!
0(
#62700
1!
1(
b100000111 0
b1111101000 1
#62800
0!
0(
#62900
1!
1(
b100001000 0
b1111101000 1
#63000
0!
0(
#63100
1!
1(
b100001001 0
b1111101000 1
#63200
0!
0(
#63300
1!
1(
b100001010 0
b1111101000 1
#63400
0!
0(
#63500
1!
1(
b100001011 0
b1111101000 1
#63600
0!
0(
#63700
1!
1(
b100001100 0
b1111101000 1
#63800
0!
0(
#63900
1!
1(
b100001101 0
b1111101000 1
#64000
0!
0(
#64100
1!
1(
b100001110 0
b1111101000 1
#64200
0!
0(
#64300
1!
1(
b100001111 0
b1111101000 1
#64400
0!
0(
#64500
1!
1(
b100010000 0
b1111101000 1
#64600
0!
0(
#64700
1!
1(
b100010001 0
b1111101000 1
#64800
0!
0(
#64900
1!
1(
b100010010 0
b1111101000 1
#65000
0!
0(
#65100
1!
1(
b100010011 0
b1111101000 1
#65200
0!
0(
#65300
1!
1(
b100010100 0
b1111101000 1
#65400
0!
0(
#65500
1!
1(
b100010101 0
b1111101000 1
#65600
0!
0(
#65700
1!
1(
b100010110 0
b1111101000 1
#65800
0!
0(
#65900
1!
1(
b100010111 0
b1111101000 1
#66000
0!
0(
#66100
1!
1(
b100011000 0
b1111101000 1
#66200
0!
0(
#66300
1!
1(
b100011001 0
b1111101000 1
#66400
0!
0(
#66500
1!
1(
b100011010 0
b1111101000 1
#66600
0!
0(
#66700
1!
1(
b100011011 0
b1111101000 1
#66800
0!
0(
#66900
1!
1(
b100011100 0
b1111101000 1
#67000
0!
0(
#67100
1!
1(
b100011101 0
b1111101000 1
#67200
0!
0(
#67300
1!
1(
b100011110 0
b1111101000 1
#67400
0!
0(
#67500
1!
1(
b100011111 0
b1111101000 1
#67600
0!
0(
#67700
1!
1(
b100100000 0
b1111101000 1
#67800
0!
0(
#67900
1!
1(
b100100001 0
b1111101000 1
#68000
0!
0(
#68100
1!
1(
b100100010 0
b1111101000 1
#68200
0!
0(
#68300
1!
1(
b100100011 0
b1111101000 1
#68400
0!
0(
#68500
1!
1(
b100100100 0
b1111101000 1
#68600
0!
0(
#68700
1!
1(
b100100101 0
b1111101000 1
#68800
0!
0(
#68900
1!
1(
b100100110 0
b1111101000 1
#69000
0!
0(
#69100
1!
1(
b100100111 0
b1111101000 1
#69200
0!
0(
#69300
1!
1(
b100101000 0
b1111101000 1
#69400
0!
0(
#69500
1!
1(
b100101001 0
b1111101000 1
#69600
0!
0(
#69700
1!
1(
b100101010 0
b1111101000 1
#69800
0!
0(
#69900
1!
1(
b100101011 0
b1111101000 1
#70000
0!
0(
#70100
1!
1(
b100101100 0
b1111101000 1
#70200
0!
0(
#70300
1!
1(
b100101101 0
b1111101000 1
#70400
0!
0(
#70500
1!
1(
b100101110 0
b1111101000 1
#70600
0!
0(
#70700
1!
1(
b100101111 0
b1111101000 1
#70800
0!
0(
#70900
1!
1(
b100110000 0
b1111101000 1
#71000
0!
0(
#71100
1!
1(
b100110001 0
b1111101000 1
#71200
0!
0(
#71300
1!
1(
b100110010 0
b1111101000 1
#71400
0!
0(
#71500
1!
1(
b100110011 0
b1111101000 1
#71600
0!
0(
#71700
1!
1(
b100110100 0
b1111101000 1
#71800
0!
0(
#71900
1!
1(
b100110101 0
b1111101000 1
#72000
0!
0(
#72100
1!
1(
b100110110 0
b1111101000 1
#72200
0!
0(
#72300
1!
1(
b100110111 0
b1111101000 1
#72400
0!
0(
#72500
1!
1(
b100111000 0
b1111101000 1
#72600
0!
0(
#72700
1!
1(
b100111001 0
b1111101000 1
#72800
0!
0(
#72900
1!
1(
b100111010 0
b1111101000 1
#73000
0!
0(
#73100
1!
1(
b100111011 0
b1111101000 1
#73200
0!
0(
#73300
1!
1(
b100111100 0
b1111101000 1
#73400
0!
0(
#73500
1!
1(
b100111101 0
b1111101000 1
#73600
0!
0(
#73700
1!
1(
b100111110 0
b1111101000 1
#73800
0!
0(
#73900
1!
1(
b100111111 0
b1111101000 1
#74000
0!
0(
#74100
1!
1(
b101000000 0
b1111101000 1
#74200
0!
0(
#74300
1!
1(
b101000001 0
b1111101000 1
#74400
0!
0(
#74500
1!
1(
b101000010 0
b1111101000 1
#74600
0!
0(
#74700
1!
1(
b101000011 0
b1111101000 1
#74800
0!
0(
#74900
1!
1(
b101000100 0
b1111101000 1
#75000
0!
0(
#75100
1!
1(
b101000101 0
b1111101000 1
#75200
0!
0(
#75300
1!
1(
b101000110 0
b1111101000 1
#75400
0!
0(
#75500
1!
1(
b101000111 0
b1111101000 1
#75600
0!
0(
#75700
1!
1(
b101001000 0
b1111101000 1
#75800
0!
0(
#75900
1!
1(
b101001001 0
b1111101000 1
#76000
0!
0(
#76100
1!
1(
b101001010 0
b1111101000 1
#76200
0!
0(
#76300
1!
1(
b101001011 0
b1111101000 1
#76400
0!
0(
#76500
1!
1(
b101001100 0
b1111101000 1
#76600
0!
0(
#76700
1!
1(
b101001101 0
b1111101000 1
#76800
0!
0(
#76900
1!
1(
b101001110 0
b1111101000 1
#77000
0!
0(
#77100
1!
1(
b101001111 0
b1111101000 1
#77200
0!
0(
#77300
1!
1(
b101010000 0
b1111101000 1
#77400
0!
0(
#77500
1!
1(
b101010001 0
b1111101000 1
#77600
0!
0(
#77700
1!
1(
b101010010 0
b1111101000 1
#77800
0!
0(
#77900
1!
1(
b101010011 0
b1111101000 1
#78000
0!
0(
#78100
1!
1(
b101010100 0
b1111101000 1
#78200
0!
0(
#78300
1!
1(
b101010101 0
b1111101000 1
#78400
0!
0(
#78500
1!
1(
b101010110 0
b1111101000 1
#78600
0!
0(
#78700
1!
1(
b101010111 0
b1111101000 1
#78800
0!
0(
#78900
1!
1(
b101011000 0
b1111101000 1
#79000
0!
0(
#79100
1!
1(
b101011001 0
b1111101000 1
#79200
0!
0(
#79300
1!
1(
b101011010 0
b1111101000 1
#79400
0!
0(
#79500
1!
1(
b101011011 0
b1111101000 1
#79600
0!
0(
#79700
1!
1(
b101011100 0
b1111101000 1
#79800
0!
0(
#79900
1!
1(
b101011101 0
b1111101000 1
#80000
0!
0(
#80100
1!
1(
b101011110 0
b1111101000 1
#80200
0!
0(
#80300
1!
1(
b101011111 0
b1111101000 1
#80400
0!
0(
#80500
1!
1(
b101100000 0
b1111101000 1
#80600
0!
0(
#80700
1!
1(
b101100001 0
b1111101000 1
#80800
0!
0(
#80900
1!
1(
b101100010 0
b1111101000 1
#81000
0!
0(
#81100
1!
1(
b101100011 0
b1111101000 1
#81200
0!
0(
#81300
1!
1(
b101100100 0
b1111101000 1
#81400
0!
0(
#81500
1!
1(
b101100101 0
b1111101000 1
#81600
0!
0(
#81700
1!
1(
b101100110 0
b1111101000 1
#81800
0!
0(
#81900
1!
1(
b101100111 0
b1111101000 1
#82000
0!
0(
#82100
1!
1(
b101101000 0
b1111101000 1
#82200
0!
0(
#82300
1!
1(
b101101001 0
b1111101000 1
#82400
0!
0(
#82500
1!
1(
b101101010 0
b1111101000 1
#82600
0!
0(
#82700
1!
1(
b101101011 0
b1111101000 1
#82800
0!
0(
#82900
1!
1(
b101101100 0
b1111101000 1
#83000
0!
0(
#83100
1!
1(
b101101101 0
b1111101000 1
#83200
0!
0(
#83300
1!
1(
b101101110 0
b1111101000 1
#83400
0!
0(
#83500
1!
1(
b101101111 0
b1111101000 1
#83600
0!
0(
#83700
1!
1(
b101110000 0
b1111101000 1
#83800
0!
0(
#83900
1!
1(
b101110001 0
b1111101000 1
#84000
0!
0(
#84100
1!
1(
b101110010 0
b1111101000 1
#84200
0!
0(
#84300
1!
1(
b101110011 0
b1111101000 1
#84400
0!
0(
