signEncode/signEncode.sim/sim_1/behav/xsim/HintBit.vcd
$date
   Thu Mar 27 07:15:57 2025
$end
$version
  2018.2
$end
$timescale
  1ps
$end
$scope module tb $end
$var reg 1 ! clk $end
$var reg 1 " rst $end
$var reg 1 # startpin $end
$var reg 1 $ endpin $end
$var parameter 0 % K $end
$var parameter 0 & COEFF_WIDTH $end
$var parameter 0 ' W $end
$scope module uut $end
$var wire 1 ( clk $end
$var wire 1 ) rst $end
$var wire 1 * startpin $end
$var reg 1 $ endpin $end
$var reg 2 + state [1:0] $end
$var reg 8 , index [7:0] $end
$var reg 4 - i [3:0] $end
$var reg 9 . j [8:0] $end
$var parameter 32 / K [31:0] $end
$var parameter 32 0 W [31:0] $end
$var parameter 32 1 COEFF_WIDTH [31:0] $end
$upscope $end
$upscope $end
$enddefinitions $end
#0
$dumpvars
1!
1"
0#
0$
b1000 %
b100000000 &
b1001011 '
1(
1)
0*
b0 +
b0 ,
b0 -
b0 .
b1000 /
b1001011 0
b100000000 1
$end
#100
0!
0(
#200
1!
1(
#300
0!
0(
#400
1!
1(
#500
0!
0(
#600
1!
1(
#700
0!
0(
#800
1!
1(
#900
0!
0(
#1000
1!
1(
#1100
0!
0(
#1200
1!
1(
#1300
0!
0(
#1400
1!
1(
#1500
0!
0(
#1600
1!
1(
#1700
0!
0(
#1800
1!
1(
#1900
0!
0(
#2000
1!
0"
1#
1(
0)
1*
b1 +
#2100
0!
0(
#2200
1!
1(
b1 .
#2300
0!
0(
#2400
1!
1(
b10 .
#2500
0!
0(
#2600
1!
1(
b11 .
#2700
0!
0(
#2800
1!
1(
b100 .
#2900
0!
0(
#3000
1!
1(
b101 .
#3100
0!
0(
#3200
1!
1(
b110 .
#3300
0!
0(
#3400
1!
1(
b111 .
#3500
0!
0(
#3600
1!
1(
b1000 .
#3700
0!
0(
#3800
1!
1(
b1001 .
#3900
0!
0(
#4000
1!
1(
b1010 .
#4100
0!
0(
#4200
1!
1(
b1011 .
#4300
0!
0(
#4400
1!
1(
b1100 .
#4500
0!
0(
#4600
1!
1(
b1101 .
#4700
0!
0(
#4800
1!
1(
b1110 .
#4900
0!
0(
#5000
1!
1(
b1111 .
#5100
0!
0(
#5200
1!
1(
b10000 .
#5300
0!
0(
#5400
1!
1(
b10001 .
#5500
0!
0(
#5600
1!
1(
b10010 .
#5700
0!
0(
#5800
1!
1(
b10011 .
#5900
0!
0(
#6000
1!
1(
b10100 .
#6100
0!
0(
#6200
1!
1(
b10101 .
#6300
0!
0(
#6400
1!
1(
b10110 .
#6500
0!
0(
#6600
1!
1(
b10111 .
#6700
0!
0(
#6800
1!
1(
b11000 .
#6900
0!
0(
#7000
1!
1(
b11001 .
#7100
0!
0(
#7200
1!
1(
b11010 .
#7300
0!
0(
#7400
1!
1(
b11011 .
#7500
0!
0(
#7600
1!
1(
b11100 .
#7700
0!
0(
#7800
1!
1(
b11101 .
#7900
0!
0(
#8000
1!
1(
b11110 .
#8100
0!
0(
#8200
1!
1(
b11111 .
#8300
0!
0(
#8400
1!
1(
b100000 .
#8500
0!
0(
#8600
1!
1(
b100001 .
#8700
0!
0(
#8800
1!
1(
b100010 .
#8900
0!
0(
#9000
1!
1(
b100011 .
#9100
0!
0(
#9200
1!
1(
b100100 .
#9300
0!
0(
#9400
1!
1(
b100101 .
#9500
0!
0(
#9600
1!
1(
b100110 .
#9700
0!
0(
#9800
1!
1(
b100111 .
#9900
0!
0(
#10000
1!
1(
b101000 .
#10100
0!
0(
#10200
1!
1(
b101001 .
#10300
0!
0(
#10400
1!
1(
b101010 .
#10500
0!
0(
#10600
1!
1(
b101011 .
#10700
0!
0(
#10800
1!
1(
b101100 .
#10900
0!
0(
#11000
1!
1(
b101101 .
#11100
0!
0(
#11200
1!
1(
b101110 .
#11300
0!
0(
#11400
1!
1(
b101111 .
#11500
0!
0(
#11600
1!
1(
b110000 .
#11700
0!
0(
#11800
1!
1(
b1 ,
b110001 .
#11900
0!
0(
#12000
1!
1(
b110010 .
#12100
0!
0(
#12200
1!
1(
b110011 .
#12300
0!
0(
#12400
1!
1(
b110100 .
#12500
0!
0(
#12600
1!
1(
b110101 .
#12700
0!
0(
#12800
1!
1(
b110110 .
#12900
0!
0(
#13000
1!
1(
b110111 .
#13100
0!
0(
#13200
1!
1(
b111000 .
#13300
0!
0(
#13400
1!
1(
b111001 .
#13500
0!
0(
#13600
1!
1(
b111010 .
#13700
0!
0(
#13800
1!
1(
b111011 .
#13900
0!
0(
#14000
1!
1(
b111100 .
#14100
0!
0(
#14200
1!
1(
b111101 .
#14300
0!
0(
#14400
1!
1(
b111110 .
#14500
0!
0(
#14600
1!
1(
b111111 .
#14700
0!
0(
#14800
1!
1(
b1000000 .
#14900
0!
0(
#15000
1!
1(
b1000001 .
#15100
0!
0(
#15200
1!
1(
b1000010 .
#15300
0!
0(
#15400
1!
1(
b1000011 .
#15500
0!
0(
#15600
1!
1(
b1000100 .
#15700
0!
0(
#15800
1!
1(
b1000101 .
#15900
0!
0(
#16000
1!
1(
b1000110 .
#16100
0!
0(
#16200
1!
1(
b1000111 .
#16300
0!
0(
#16400
1!
1(
b1001000 .
#16500
0!
0(
#16600
1!
1(
b1001001 .
#16700
0!
0(
#16800
1!
1(
b1001010 .
#16900
0!
0(
#17000
1!
1(
b1001011 .
#17100
0!
0(
#17200
1!
1(
b1001100 .
#17300
0!
0(
#17400
1!
1(
b1001101 .
#17500
0!
0(
#17600
1!
1(
b1001110 .
#17700
0!
0(
#17800
1!
1(
b1001111 .
#17900
0!
0(
#18000
1!
1(
b1010000 .
#18100
0!
0(
#18200
1!
1(
b1010001 .
#18300
0!
0(
#18400
1!
1(
b1010010 .
#18500
0!
0(
#18600
1!
1(
b1010011 .
#18700
0!
0(
#18800
1!
1(
b1010100 .
#18900
0!
0(
#19000
1!
1(
b1010101 .
#19100
0!
0(
#19200
1!
1(
b1010110 .
#19300
0!
0(
#19400
1!
1(
b1010111 .
#19500
0!
0(
#19600
1!
1(
b1011000 .
#19700
0!
0(
#19800
1!
1(
b1011001 .
#19900
0!
0(
#20000
1!
1(
b1011010 .
#20100
0!
0(
#20200
1!
1(
b1011011 .
#20300
0!
0(
#20400
1!
1(
b1011100 .
#20500
0!
0(
#20600
1!
1(
b1011101 .
#20700
0!
0(
#20800
1!
1(
b1011110 .
#20900
0!
0(
#21000
1!
1(
b1011111 .
#21100
0!
0(
#21200
1!
1(
b1100000 .
#21300
0!
0(
#21400
1!
1(
b1100001 .
#21500
0!
0(
#21600
1!
1(
b1100010 .
#21700
0!
0(
#21800
1!
1(
b1100011 .
#21900
0!
0(
#22000
1!
1(
b1100100 .
#22100
0!
0(
#22200
1!
1(
b1100101 .
#22300
0!
0(
#22400
1!
1(
b1100110 .
#22500
0!
0(
#22600
1!
1(
b1100111 .
#22700
0!
0(
#22800
1!
1(
b1101000 .
#22900
0!
0(
#23000
1!
1(
b1101001 .
#23100
0!
0(
#23200
1!
1(
b1101010 .
#23300
0!
0(
#23400
1!
1(
b1101011 .
#23500
0!
0(
#23600
1!
1(
b1101100 .
#23700
0!
0(
#23800
1!
1(
b1101101 .
#23900
0!
0(
#24000
1!
1(
b10 ,
b1101110 .
#24100
0!
0(
#24200
1!
1(
b1101111 .
#24300
0!
0(
#24400
1!
1(
b1110000 .
#24500
0!
0(
#24600
1!
1(
b1110001 .
#24700
0!
0(
#24800
1!
1(
b1110010 .
#24900
0!
0(
#25000
1!
1(
b1110011 .
#25100
0!
0(
#25200
1!
1(
b1110100 .
#25300
0!
0(
#25400
1!
1(
b1110101 .
#25500
0!
0(
#25600
1!
1(
b1110110 .
#25700
0!
0(
#25800
1!
1(
b1110111 .
#25900
0!
0(
#26000
1!
1(
b1111000 .
#26100
0!
0(
#26200
1!
1(
b1111001 .
#26300
0!
0(
#26400
1!
1(
b1111010 .
#26500
0!
0(
#26600
1!
1(
b1111011 .
#26700
0!
0(
#26800
1!
1(
b1111100 .
#26900
0!
0(
#27000
1!
1(
b1111101 .
#27100
0!
0(
#27200
1!
1(
b1111110 .
#27300
0!
0(
#27400
1!
1(
b1111111 .
#27500
0!
0(
#27600
1!
1(
b10000000 .
#27700
0!
0(
#27800
1!
1(
b11 ,
b10000001 .
#27900
0!
0(
#28000
1!
1(
b10000010 .
#28100
0!
0(
#28200
1!
1(
b10000011 .
#28300
0!
0(
#28400
1!
1(
b10000100 .
#28500
0!
0(
#28600
1!
1(
b10000101 .
#28700
0!
0(
#28800
1!
1(
b10000110 .
#28900
0!
0(
#29000
1!
1(
b10000111 .
#29100
0!
0(
#29200
1!
1(
b10001000 .
#29300
0!
0(
#29400
1!
1(
b10001001 .
#29500
0!
0(
#29600
1!
1(
b10001010 .
#29700
0!
0(
#29800
1!
1(
b10001011 .
#29900
0!
0(
#30000
1!
1(
b10001100 .
#30100
0!
0(
#30200
1!
1(
b10001101 .
#30300
0!
0(
#30400
1!
1(
b10001110 .
#30500
0!
0(
#30600
1!
1(
b10001111 .
#30700
0!
0(
#30800
1!
1(
b10010000 .
#30900
0!
0(
#31000
1!
1(
b10010001 .
#31100
0!
0(
#31200
1!
1(
b10010010 .
#31300
0!
0(
#31400
1!
1(
b10010011 .
#31500
0!
0(
#31600
1!
1(
b10010100 .
#31700
0!
0(
#31800
1!
1(
b10010101 .
#31900
0!
0(
#32000
1!
1(
b10010110 .
#32100
0!
0(
#32200
1!
1(
b10010111 .
#32300
0!
0(
#32400
1!
1(
b10011000 .
#32500
0!
0(
#32600
1!
1(
b10011001 .
#32700
0!
0(
#32800
1!
1(
b10011010 .
#32900
0!
0(
#33000
1!
1(
b10011011 .
#33100
0!
0(
#33200
1!
1(
b10011100 .
#33300
0!
0(
#33400
1!
1(
b10011101 .
#33500
0!
0(
#33600
1!
1(
b10011110 .
#33700
0!
0(
#33800
1!
1(
b10011111 .
#33900
0!
0(
#34000
1!
1(
b10100000 .
#34100
0!
0(
#34200
1!
1(
b10100001 .
#34300
0!
0(
#34400
1!
1(
b10100010 .
#34500
0!
0(
#34600
1!
1(
b10100011 .
#34700
0!
0(
#34800
1!
1(
b10100100 .
#34900
0!
0(
#35000
1!
1(
b10100101 .
#35100
0!
0(
#35200
1!
1(
b10100110 .
#35300
0!
0(
#35400
1!
1(
b10100111 .
#35500
0!
0(
#35600
1!
1(
b10101000 .
#35700
0!
0(
#35800
1!
1(
b10101001 .
#35900
0!
0(
#36000
1!
1(
b10101010 .
#36100
0!
0(
#36200
1!
1(
b10101011 .
#36300
0!
0(
#36400
1!
1(
b10101100 .
#36500
0!
0(
#36600
1!
1(
b10101101 .
#36700
0!
0(
#36800
1!
1(
b10101110 .
#36900
0!
0(
#37000
1!
1(
b10101111 .
#37100
0!
0(
#37200
1!
1(
b10110000 .
#37300
0!
0(
#37400
1!
1(
b10110001 .
#37500
0!
0(
#37600
1!
1(
b10110010 .
#37700
0!
0(
#37800
1!
1(
b10110011 .
#37900
0!
0(
#38000
1!
1(
b10110100 .
#38100
0!
0(
#38200
1!
1(
b10110101 .
#38300
0!
0(
#38400
1!
1(
b10110110 .
#38500
0!
0(
#38600
1!
1(
b10110111 .
#38700
0!
0(
#38800
1!
1(
b10111000 .
#38900
0!
0(
#39000
1!
1(
b10111001 .
#39100
0!
0(
#39200
1!
1(
b10111010 .
#39300
0!
0(
#39400
1!
1(
b100 ,
b10111011 .
#39500
0!
0(
#39600
1!
1(
b10111100 .
#39700
0!
0(
#39800
1!
1(
b10111101 .
#39900
0!
0(
#40000
1!
1(
b10111110 .
#40100
0!
0(
#40200
1!
1(
b10111111 .
#40300
0!
0(
#40400
1!
1(
b11000000 .
#40500
0!
0(
#40600
1!
1(
b11000001 .
#40700
0!
0(
#40800
1!
1(
b11000010 .
#40900
0!
0(
#41000
1!
1(
b11000011 .
#41100
0!
0(
#41200
1!
1(
b11000100 .
#41300
0!
0(
#41400
1!
1(
b11000101 .
#41500
0!
0(
#41600
1!
1(
b11000110 .
#41700
0!
0(
#41800
1!
1(
b11000111 .
#41900
0!
0(
#42000
1!
1(
b11001000 .
#42100
0!
0(
#42200
1!
1(
b11001001 .
#42300
0!
0(
#42400
1!
1(
b11001010 .
#42500
0!
0(
#42600
1!
1(
b11001011 .
#42700
0!
0(
#42800
1!
1(
b11001100 .
#42900
0!
0(
#43000
1!
1(
b11001101 .
#43100
0!
0(
#43200
1!
1(
b11001110 .
#43300
0!
0(
#43400
1!
1(
b11001111 .
#43500
0!
0(
#43600
1!
1(
b11010000 .
#43700
0!
0(
#43800
1!
1(
b11010001 .
#43900
0!
0(
#44000
1!
1(
b11010010 .
#44100
0!
0(
#44200
1!
1(
b11010011 .
#44300
0!
0(
#44400
1!
1(
b11010100 .
#44500
0!
0(
#44600
1!
1(
b11010101 .
#44700
0!
0(
#44800
1!
1(
b11010110 .
#44900
0!
0(
#45000
1!
1(
b11010111 .
#45100
0!
0(
#45200
1!
1(
b11011000 .
#45300
0!
0(
#45400
1!
1(
b11011001 .
#45500
0!
0(
#45600
1!
1(
b11011010 .
#45700
0!
0(
#45800
1!
1(
b11011011 .
#45900
0!
0(
#46000
1!
1(
b11011100 .
#46100
0!
0(
#46200
1!
1(
b11011101 .
#46300
0!
0(
#46400
1!
1(
b11011110 .
#46500
0!
0(
#46600
1!
1(
b11011111 .
#46700
0!
0(
#46800
1!
1(
b11100000 .
#46900
0!
0(
#47000
1!
1(
b11100001 .
#47100
0!
0(
#47200
1!
1(
b11100010 .
#47300
0!
0(
#47400
1!
1(
b11100011 .
#47500
0!
0(
#47600
1!
1(
b11100100 .
#47700
0!
0(
#47800
1!
1(
b11100101 .
#47900
0!
0(
#48000
1!
1(
b11100110 .
#48100
0!
0(
#48200
1!
1(
b101 ,
b11100111 .
#48300
0!
0(
#48400
1!
1(
b11101000 .
#48500
0!
0(
#48600
1!
1(
b11101001 .
#48700
0!
0(
#48800
1!
1(
b11101010 .
#48900
0!
0(
#49000
1!
1(
b11101011 .
#49100
0!
0(
#49200
1!
1(
b11101100 .
#49300
0!
0(
#49400
1!
1(
b11101101 .
#49500
0!
0(
#49600
1!
1(
b11101110 .
#49700
0!
0(
#49800
1!
1(
b11101111 .
#49900
0!
0(
#50000
1!
1(
b11110000 .
#50100
0!
0(
#50200
1!
1(
b11110001 .
#50300
0!
0(
#50400
1!
1(
b11110010 .
#50500
0!
0(
#50600
1!
1(
b11110011 .
#50700
0!
0(
#50800
1!
1(
b110 ,
b11110100 .
#50900
0!
0(
#51000
1!
1(
b11110101 .
#51100
0!
0(
#51200
1!
1(
b11110110 .
#51300
0!
0(
#51400
1!
1(
b11110111 .
#51500
0!
0(
#51600
1!
1(
b11111000 .
#51700
0!
0(
#51800
1!
1(
b11111001 .
#51900
0!
0(
#52000
1!
1(
b11111010 .
#52100
0!
0(
#52200
1!
1(
b11111011 .
#52300
0!
0(
#52400
1!
1(
b11111100 .
#52500
0!
0(
#52600
1!
1(
b11111101 .
#52700
0!
0(
#52800
1!
1(
b11111110 .
#52900
0!
0(
#53000
1!
1(
b11111111 .
#53100
0!
0(
#53200
1!
1(
b100000000 .
#53300
0!
0(
#53400
1!
1(
b1 -
b0 .
#53500
0!
0(
#53600
1!
1(
b1 .
#53700
0!
0(
#53800
1!
1(
b10 .
#53900
0!
0(
#54000
1!
1(
b11 .
#54100
0!
0(
#54200
1!
1(
b100 .
#54300
0!
0(
#54400
1!
1(
b101 .
#54500
0!
0(
#54600
1!
1(
b110 .
#54700
0!
0(
#54800
1!
1(
b111 .
#54900
0!
0(
#55000
1!
1(
b1000 .
#55100
0!
0(
#55200
1!
1(
b1001 .
#55300
0!
0(
#55400
1!
1(
b111 ,
b1010 .
#55500
0!
0(
#55600
1!
1(
b1011 .
#55700
0!
0(
#55800
1!
1(
b1100 .
#55900
0!
0(
#56000
1!
1(
b1101 .
#56100
0!
0(
#56200
1!
1(
b1110 .
#56300
0!
0(
#56400
1!
1(
b1111 .
#56500
0!
0(
#56600
1!
1(
b10000 .
#56700
0!
0(
#56800
1!
1(
b10001 .
#56900
0!
0(
#57000
1!
1(
b10010 .
#57100
0!
0(
#57200
1!
1(
b10011 .
#57300
0!
0(
#57400
1!
1(
b1000 ,
b10100 .
#57500
0!
0(
#57600
1!
1(
b10101 .
#57700
0!
0(
#57800
1!
1(
b1001 ,
b10110 .
#57900
0!
0(
#58000
1!
1(
b10111 .
#58100
0!
0(
#58200
1!
1(
b11000 .
#58300
0!
0(
#58400
1!
1(
b11001 .
#58500
0!
0(
#58600
1!
1(
b11010 .
#58700
0!
0(
#58800
1!
1(
b11011 .
#58900
0!
0(
#59000
1!
1(
b11100 .
#59100
0!
0(
#59200
1!
1(
b11101 .
#59300
0!
0(
#59400
1!
1(
b11110 .
#59500
0!
0(
#59600
1!
1(
b11111 .
#59700
0!
0(
#59800
1!
1(
b100000 .
#59900
0!
0(
#60000
1!
1(
b100001 .
#60100
0!
0(
#60200
1!
1(
b100010 .
#60300
0!
0(
#60400
1!
1(
b1010 ,
b100011 .
#60500
0!
0(
#60600
1!
1(
b100100 .
#60700
0!
0(
#60800
1!
1(
b100101 .
#60900
0!
0(
#61000
1!
1(
b100110 .
#61100
0!
0(
#61200
1!
1(
b100111 .
#61300
0!
0(
#61400
1!
1(
b101000 .
#61500
0!
0(
#61600
1!
1(
b101001 .
#61700
0!
0(
#61800
1!
1(
b101010 .
#61900
0!
0(
#62000
1!
1(
b101011 .
#62100
0!
0(
#62200
1!
1(
b101100 .
#62300
0!
0(
#62400
1!
1(
b101101 .
#62500
0!
0(
#62600
1!
1(
b101110 .
#62700
0!
0(
#62800
1!
1(
b101111 .
#62900
0!
0(
#63000
1!
1(
b110000 .
#63100
0!
0(
#63200
1!
1(
b110001 .
#63300
0!
0(
#63400
1!
1(
b110010 .
#63500
0!
0(
#63600
1!
1(
b110011 .
#63700
0!
0(
#63800
1!
1(
b110100 .
#63900
0!
0(
#64000
1!
1(
b110101 .
#64100
0!
0(
#64200
1!
1(
b110110 .
#64300
0!
0(
#64400
1!
1(
b110111 .
#64500
0!
0(
#64600
1!
1(
b111000 .
#64700
0!
0(
#64800
1!
1(
b111001 .
#64900
0!
0(
#65000
1!
1(
b111010 .
#65100
0!
0(
#65200
1!
1(
b111011 .
#65300
0!
0(
#65400
1!
1(
b111100 .
#65500
0!
0(
#65600
1!
1(
b111101 .
#65700
0!
0(
#65800
1!
1(
b111110 .
#65900
0!
0(
#66000
1!
1(
b111111 .
#66100
0!
0(
#66200
1!
1(
b1000000 .
#66300
0!
0(
#66400
1!
1(
b1000001 .
#66500
0!
0(
#66600
1!
1(
b1000010 .
#66700
0!
0(
#66800
1!
1(
b1000011 .
#66900
0!
0(
#67000
1!
1(
b1000100 .
#67100
0!
0(
#67200
1!
1(
b1000101 .
#67300
0!
0(
#67400
1!
1(
b1000110 .
#67500
0!
0(
#67600
1!
1(
b1000111 .
#67700
0!
0(
#67800
1!
1(
b1001000 .
#67900
0!
0(
#68000
1!
1(
b1001001 .
#68100
0!
0(
#68200
1!
1(
b1001010 .
#68300
0!
0(
#68400
1!
1(
b1001011 .
#68500
0!
0(
#68600
1!
1(
b1001100 .
#68700
0!
0(
#68800
1!
1(
b1001101 .
#68900
0!
0(
#69000
1!
1(
b1001110 .
#69100
0!
0(
#69200
1!
1(
b1001111 .
#69300
0!
0(
#69400
1!
1(
b1010000 .
#69500
0!
0(
#69600
1!
1(
b1010001 .
#69700
0!
0(
#69800
1!
1(
b1010010 .
#69900
0!
0(
#70000
1!
1(
b1010011 .
#70100
0!
0(
#70200
1!
1(
b1010100 .
#70300
0!
0(
#70400
1!
1(
b1010101 .
#70500
0!
0(
#70600
1!
1(
b1010110 .
#70700
0!
0(
#70800
1!
1(
b1010111 .
#70900
0!
0(
#71000
1!
1(
b1011000 .
#71100
0!
0(
#71200
1!
1(
b1011001 .
#71300
0!
0(
#71400
1!
1(
b1011010 .
#71500
0!
0(
#71600
1!
1(
b1011011 .
#71700
0!
0(
#71800
1!
1(
b1011100 .
#71900
0!
0(
#72000
1!
1(
b1011101 .
#72100
0!
0(
#72200
1!
1(
b1011110 .
#72300
0!
0(
#72400
1!
1(
b1011111 .
#72500
0!
0(
#72600
1!
1(
b1100000 .
#72700
0!
0(
#72800
1!
1(
b1100001 .
#72900
0!
0(
#73000
1!
1(
b1100010 .
#73100
0!
0(
#73200
1!
1(
b1100011 .
#73300
0!
0(
#73400
1!
1(
b1100100 .
#73500
0!
0(
#73600
1!
1(
b1100101 .
#73700
0!
0(
#73800
1!
1(
b1100110 .
#73900
0!
0(
#74000
1!
1(
b1100111 .
#74100
0!
0(
#74200
1!
1(
b1101000 .
#74300
0!
0(
#74400
1!
1(
b1101001 .
#74500
0!
0(
#74600
1!
1(
b1101010 .
#74700
0!
0(
#74800
1!
1(
b1101011 .
#74900
0!
0(
#75000
1!
1(
b1101100 .
#75100
0!
0(
#75200
1!
1(
b1101101 .
#75300
0!
0(
#75400
1!
1(
b1101110 .
#75500
0!
0(
#75600
1!
1(
b1101111 .
#75700
0!
0(
#75800
1!
1(
b1110000 .
#75900
0!
0(
#76000
1!
1(
b1110001 .
#76100
0!
0(
#76200
1!
1(
b1110010 .
#76300
0!
0(
#76400
1!
1(
b1110011 .
#76500
0!
0(
#76600
1!
1(
b1110100 .
#76700
0!
0(
#76800
1!
1(
b1110101 .
#76900
0!
0(
#77000
1!
1(
b1110110 .
#77100
0!
0(
#77200
1!
1(
b1110111 .
#77300
0!
0(
#77400
1!
1(
b1111000 .
#77500
0!
0(
#77600
1!
1(
b1111001 .
#77700
0!
0(
#77800
1!
1(
b1011 ,
b1111010 .
#77900
0!
0(
#78000
1!
1(
b1111011 .
#78100
0!
0(
#78200
1!
1(
b1111100 .
#78300
0!
0(
#78400
1!
1(
b1111101 .
#78500
0!
0(
#78600
1!
1(
b1111110 .
#78700
0!
0(
#78800
1!
1(
b1111111 .
#78900
0!
0(
#79000
1!
1(
b10000000 .
#79100
0!
0(
#79200
1!
1(
b10000001 .
#79300
0!
0(
#79400
1!
1(
b10000010 .
#79500
0!
0(
#79600
1!
1(
b10000011 .
#79700
0!
0(
#79800
1!
1(
b10000100 .
#79900
0!
0(
#80000
1!
1(
b10000101 .
#80100
0!
0(
#80200
1!
1(
b10000110 .
#80300
0!
0(
#80400
1!
1(
b10000111 .
#80500
0!
0(
#80600
1!
1(
b10001000 .
#80700
0!
0(
#80800
1!
1(
b10001001 .
#80900
0!
0(
#81000
1!
1(
b10001010 .
#81100
0!
0(
#81200
1!
1(
b10001011 .
#81300
0!
0(
#81400
1!
1(
b10001100 .
#81500
0!
0(
#81600
1!
1(
b10001101 .
#81700
0!
0(
#81800
1!
1(
b10001110 .
#81900
0!
0(
#82000
1!
1(
b10001111 .
#82100
0!
0(
#82200
1!
1(
b10010000 .
#82300
0!
0(
#82400
1!
1(
b1100 ,
b10010001 .
#82500
0!
0(
#82600
1!
1(
b10010010 .
#82700
0!
0(
#82800
1!
1(
b10010011 .
#82900
0!
0(
#83000
1!
1(
b10010100 .
#83100
0!
0(
#83200
1!
1(
b10010101 .
#83300
0!
0(
#83400
1!
1(
b10010110 .
#83500
0!
0(
#83600
1!
1(
b10010111 .
#83700
0!
0(
#83800
1!
1(
b10011000 .
#83900
0!
0(
#84000
1!
1(
b10011001 .
#84100
0!
0(
#84200
1!
1(
b10011010 .
#84300
0!
0(
#84400
1!
1(
b10011011 .
#84500
0!
0(
#84600
1!
1(
b10011100 .
#84700
0!
0(
#84800
1!
1(
b10011101 .
#84900
0!
0(
#85000
1!
1(
b10011110 .
#85100
0!
0(
#85200
1!
1(
b10011111 .
#85300
0!
0(
#85400
1!
1(
b10100000 .
#85500
0!
0(
#85600
1!
1(
b10100001 .
#85700
0!
0(
#85800
1!
1(
b10100010 .
#85900
0!
0(
#86000
1!
1(
b10100011 .
#86100
0!
0(
#86200
1!
1(
b10100100 .
#86300
0!
0(
#86400
1!
1(
b10100101 .
#86500
0!
0(
#86600
1!
1(
b10100110 .
#86700
0!
0(
#86800
1!
1(
b10100111 .
#86900
0!
0(
#87000
1!
1(
b10101000 .
#87100
0!
0(
#87200
1!
1(
b10101001 .
#87300
0!
0(
#87400
1!
1(
b10101010 .
#87500
0!
0(
#87600
1!
1(
b10101011 .
#87700
0!
0(
#87800
1!
1(
b10101100 .
#87900
0!
0(
#88000
1!
1(
b10101101 .
#88100
0!
0(
#88200
1!
1(
b10101110 .
#88300
0!
0(
#88400
1!
1(
b10101111 .
#88500
0!
0(
#88600
1!
1(
b10110000 .
#88700
0!
0(
#88800
1!
1(
b10110001 .
#88900
0!
0(
#89000
1!
1(
b10110010 .
#89100
0!
0(
#89200
1!
1(
b10110011 .
#89300
0!
0(
#89400
1!
1(
b10110100 .
#89500
0!
0(
#89600
1!
1(
b10110101 .
#89700
0!
0(
#89800
1!
1(
b10110110 .
#89900
0!
0(
#90000
1!
1(
b10110111 .
#90100
0!
0(
#90200
1!
1(
b10111000 .
#90300
0!
0(
#90400
1!
1(
b10111001 .
#90500
0!
0(
#90600
1!
1(
b10111010 .
#90700
0!
0(
#90800
1!
1(
b10111011 .
#90900
0!
0(
#91000
1!
1(
b10111100 .
#91100
0!
0(
#91200
1!
1(
b10111101 .
#91300
0!
0(
#91400
1!
1(
b10111110 .
#91500
0!
0(
#91600
1!
1(
b10111111 .
#91700
0!
0(
#91800
1!
1(
b11000000 .
#91900
0!
0(
#92000
1!
1(
b11000001 .
#92100
0!
0(
#92200
1!
1(
b11000010 .
#92300
0!
0(
#92400
1!
1(
b11000011 .
#92500
0!
0(
#92600
1!
1(
b1101 ,
b11000100 .
#92700
0!
0(
#92800
1!
1(
b11000101 .
#92900
0!
0(
#93000
1!
1(
b11000110 .
#93100
0!
0(
#93200
1!
1(
b11000111 .
#93300
0!
0(
#93400
1!
1(
b11001000 .
#93500
0!
0(
#93600
1!
1(
b11001001 .
#93700
0!
0(
#93800
1!
1(
b11001010 .
#93900
0!
0(
#94000
1!
1(
b11001011 .
#94100
0!
0(
#94200
1!
1(
b11001100 .
#94300
0!
0(
#94400
1!
1(
b11001101 .
#94500
0!
0(
#94600
1!
1(
b11001110 .
#94700
0!
0(
#94800
1!
1(
b11001111 .
#94900
0!
0(
#95000
1!
1(
b11010000 .
#95100
0!
0(
#95200
1!
1(
b11010001 .
#95300
0!
0(
#95400
1!
1(
b11010010 .
#95500
0!
0(
#95600
1!
1(
b11010011 .
#95700
0!
0(
#95800
1!
1(
b11010100 .
#95900
0!
0(
#96000
1!
1(
b11010101 .
#96100
0!
0(
#96200
1!
1(
b11010110 .
#96300
0!
0(
#96400
1!
1(
b11010111 .
#96500
0!
0(
#96600
1!
1(
b11011000 .
#96700
0!
0(
#96800
1!
1(
b11011001 .
#96900
0!
0(
#97000
1!
1(
b11011010 .
#97100
0!
0(
#97200
1!
1(
b11011011 .
#97300
0!
0(
#97400
1!
1(
b11011100 .
#97500
0!
0(
#97600
1!
1(
b11011101 .
#97700
0!
0(
#97800
1!
1(
b11011110 .
#97900
0!
0(
#98000
1!
1(
b11011111 .
#98100
0!
0(
#98200
1!
1(
b11100000 .
#98300
0!
0(
#98400
1!
1(
b11100001 .
#98500
0!
0(
#98600
1!
1(
b11100010 .
#98700
0!
0(
#98800
1!
1(
b11100011 .
#98900
0!
0(
#99000
1!
1(
b11100100 .
#99100
0!
0(
#99200
1!
1(
b11100101 .
#99300
0!
0(
#99400
1!
1(
b11100110 .
#99500
0!
0(
#99600
1!
1(
b11100111 .
#99700
0!
0(
#99800
1!
1(
b11101000 .
#99900
0!
0(
#100000
1!
1(
b11101001 .
#100100
0!
0(
#100200
1!
1(
b11101010 .
#100300
0!
0(
#100400
1!
1(
b11101011 .
#100500
0!
0(
#100600
1!
1(
b11101100 .
#100700
0!
0(
#100800
1!
1(
b11101101 .
#100900
0!
0(
#101000
1!
1(
b11101110 .
#101100
0!
0(
#101200
1!
1(
b1110 ,
b11101111 .
#101300
0!
0(
#101400
1!
1(
b11110000 .
#101500
0!
0(
#101600
1!
1(
b11110001 .
#101700
0!
0(
#101800
1!
1(
b11110010 .
#101900
0!
0(
#102000
1!
1(
b11110011 .
#102100
0!
0(
#102200
1!
1(
b11110100 .
#102300
0!
0(
#102400
1!
1(
b11110101 .
#102500
0!
0(
#102600
1!
1(
b11110110 .
#102700
0!
0(
#102800
1!
1(
b11110111 .
#102900
0!
0(
#103000
1!
1(
b11111000 .
#103100
0!
0(
#103200
1!
1(
b11111001 .
#103300
0!
0(
#103400
1!
1(
b11111010 .
#103500
0!
0(
#103600
1!
1(
b11111011 .
#103700
0!
0(
#103800
1!
1(
b11111100 .
#103900
0!
0(
#104000
1!
1(
b11111101 .
#104100
0!
0(
#104200
1!
1(
b11111110 .
#104300
0!
0(
#104400
1!
1(
b11111111 .
#104500
0!
0(
#104600
1!
1(
b100000000 .
#104700
0!
0(
#104800
1!
1(
b10 -
b0 .
#104900
0!
0(
#105000
1!
1(
b1 .
#105100
0!
0(
#105200
1!
1(
b10 .
#105300
0!
0(
#105400
1!
1(
b11 .
#105500
0!
0(
#105600
1!
1(
b100 .
#105700
0!
0(
#105800
1!
1(
b101 .
#105900
0!
0(
#106000
1!
1(
b110 .
#106100
0!
0(
#106200
1!
1(
b111 .
#106300
0!
0(
#106400
1!
1(
b1000 .
#106500
0!
0(
#106600
1!
1(
b1001 .
#106700
0!
0(
#106800
1!
1(
b1010 .
#106900
0!
0(
#107000
1!
1(
b1011 .
#107100
0!
0(
#107200
1!
1(
b1100 .
#107300
0!
0(
#107400
1!
1(
b1101 .
#107500
0!
0(
#107600
1!
1(
b1110 .
#107700
0!
0(
#107800
1!
1(
b1111 .
#107900
0!
0(
#108000
1!
1(
b10000 .
#108100
0!
0(
#108200
1!
1(
b10001 .
