HintBitUnpack/HintBitUnpack.sim/sim_1/behav/xsim/sequential_logic_tb.vcd
$date
   Sat Dec 21 09:28:55 2024
$end
$version
  2018.2
$end
$timescale
  1ps
$end
$scope module sequential_logic_tb $end
$var reg 1 ! clk $end
$var reg 1 " rst $end
$var reg 1 # valid $end
$var parameter 0 $ k $end
$var parameter 0 % w $end
$scope module dut $end
$var wire 1 & clk $end
$var wire 1 ' rst $end
$var reg 1 # valid $end
$var reg 3 ( state [2:0] $end
$var reg 32 ) Index [31:0] $end
$var reg 32 * First [31:0] $end
$var reg 32 + outer_counter [31:0] $end
$var reg 32 , inner_counter [31:0] $end
$var reg 32 - final_counter [31:0] $end
$var parameter 0 . k $end
$var parameter 0 / omega $end
$scope begin Block33_1 $end
$var reg 32 0 i $end
$upscope $end
$scope begin Block41_2 $end
$var reg 32 1 i $end
$upscope $end
$upscope $end
$upscope $end
$enddefinitions $end
#0
$dumpvars
1!
1"
0#
b1000 $
b1001011 %
1&
1'
b0 (
b0 )
b0 *
b0 +
b0 ,
b0 -
b1000 .
b1001011 /
b1000 0
b0 1
$end
#100
0!
0&
#200
1!
1&
b1000 0
#300
0!
0&
#400
1!
1&
b1000 0
#500
0!
0&
#600
1!
1&
b1000 0
#700
0!
0&
#800
1!
1&
b1000 0
#900
0!
0&
#1000
1!
1&
b1000 0
#1100
0!
0&
#1200
1!
1&
b1000 0
#1300
0!
0&
#1400
1!
1&
b1000 0
#1500
0!
0&
#1600
1!
1&
b1000 0
#1700
0!
0&
#1800
1!
1&
b1000 0
#1900
0!
0&
#2000
1!
1&
b1000 0
#2100
0!
0&
#2200
1!
1&
b1000 0
#2300
0!
0&
#2400
1!
1&
b1000 0
#2500
0!
0&
#2600
1!
1&
b1000 0
#2700
0!
0&
#2800
1!
1&
b1000 0
#2900
0!
0&
#3000
1!
1&
b1000 0
#3100
0!
0&
#3200
1!
1&
b1000 0
#3300
0!
0&
#3400
1!
1&
b1000 0
#3500
0!
0&
#3600
1!
1&
b1000 0
#3700
0!
0&
#3800
1!
1&
b1000 0
#3900
0!
0&
#4000
1!
1&
b1000 0
#4100
0!
0&
#4200
1!
1&
b1000 0
#4300
0!
0&
#4400
1!
1&
b1000 0
#4500
0!
0&
#4600
1!
1&
b1000 0
#4700
0!
0&
#4800
1!
1&
b1000 0
#4900
0!
0&
#5000
1!
1&
b1000 0
#5100
0!
0&
#5200
1!
1&
b1000 0
#5300
0!
0&
#5400
1!
1&
b1000 0
#5500
0!
0&
#5600
1!
1&
b1000 0
#5700
0!
0&
#5800
1!
1&
b1000 0
#5900
0!
0&
#6000
1!
1&
b1000 0
#6100
0!
0&
#6200
1!
1&
b1000 0
#6300
0!
0&
#6400
1!
1&
b1000 0
#6500
0!
0&
#6600
1!
1&
b1000 0
#6700
0!
0&
#6800
1!
1&
b1000 0
#6900
0!
0&
#7000
1!
1&
b1000 0
#7100
0!
0&
#7200
1!
1&
b1000 0
#7300
0!
0&
#7400
1!
1&
b1000 0
#7500
0!
0&
#7600
1!
1&
b1000 0
#7700
0!
0&
#7800
1!
1&
b1000 0
#7900
0!
0&
#8000
1!
1&
b1000 0
#8100
0!
0&
#8200
1!
1&
b1000 0
#8300
0!
0&
#8400
1!
1&
b1000 0
#8500
0!
0&
#8600
1!
1&
b1000 0
#8700
0!
0&
#8800
1!
1&
b1000 0
#8900
0!
0&
#9000
1!
1&
b1000 0
#9100
0!
0&
#9200
1!
1&
b1000 0
#9300
0!
0&
#9400
1!
1&
b1000 0
#9500
0!
0&
#9600
1!
1&
b1000 0
#9700
0!
0&
#9800
1!
1&
b1000 0
#9900
0!
0&
#10000
1!
0"
1&
0'
b1 (
b1000 1
#10100
0!
0&
#10200
1!
1&
b10 (
#10300
0!
0&
#10400
1!
1&
b1 )
b1 ,
#10500
0!
0&
#10600
1!
1&
b10 ,
#10700
0!
0&
#10800
1!
1&
b11 ,
#10900
0!
0&
#11000
1!
1&
b100 ,
#11100
0!
0&
#11200
1!
1&
b101 ,
#11300
0!
0&
#11400
1!
1&
b110 ,
#11500
0!
0&
#11600
1!
1&
b111 ,
#11700
0!
0&
#11800
1!
1&
b1000 ,
#11900
0!
0&
#12000
1!
1&
b1001 ,
#12100
0!
0&
#12200
1!
1&
b1010 ,
#12300
0!
0&
#12400
1!
1&
b1011 ,
#12500
0!
0&
#12600
1!
1&
b1100 ,
#12700
0!
0&
#12800
1!
1&
b1101 ,
#12900
0!
0&
#13000
1!
1&
b1110 ,
#13100
0!
0&
#13200
1!
1&
b1111 ,
#13300
0!
0&
#13400
1!
1&
b10000 ,
#13500
0!
0&
#13600
1!
1&
b10001 ,
#13700
0!
0&
#13800
1!
1&
b10010 ,
#13900
0!
0&
#14000
1!
1&
b10011 ,
#14100
0!
0&
#14200
1!
1&
b10100 ,
#14300
0!
0&
#14400
1!
1&
b10101 ,
#14500
0!
0&
#14600
1!
1&
b10110 ,
#14700
0!
0&
#14800
1!
1&
b10111 ,
#14900
0!
0&
#15000
1!
1&
b11000 ,
#15100
0!
0&
#15200
1!
1&
b11001 ,
#15300
0!
0&
#15400
1!
1&
b11010 ,
#15500
0!
0&
#15600
1!
1&
b11011 ,
#15700
0!
0&
#15800
1!
1&
b11100 ,
#15900
0!
0&
#16000
1!
1&
b11101 ,
#16100
0!
0&
#16200
1!
1&
b11110 ,
#16300
0!
0&
#16400
1!
1&
b11111 ,
#16500
0!
0&
#16600
1!
1&
b100000 ,
#16700
0!
0&
#16800
1!
1&
b100001 ,
#16900
0!
0&
#17000
1!
1&
b100010 ,
#17100
0!
0&
#17200
1!
1&
b100011 ,
#17300
0!
0&
#17400
1!
1&
b100100 ,
#17500
0!
0&
#17600
1!
1&
b100101 ,
#17700
0!
0&
#17800
1!
1&
b100110 ,
#17900
0!
0&
#18000
1!
1&
b100111 ,
#18100
0!
0&
#18200
1!
1&
b101000 ,
#18300
0!
0&
#18400
1!
1&
b101001 ,
#18500
0!
0&
#18600
1!
1&
b101010 ,
#18700
0!
0&
#18800
1!
1&
b101011 ,
#18900
0!
0&
#19000
1!
1&
b101100 ,
#19100
0!
0&
#19200
1!
1&
b101101 ,
#19300
0!
0&
#19400
1!
1&
b101110 ,
#19500
0!
0&
#19600
1!
1&
b101111 ,
#19700
0!
0&
#19800
1!
1&
b110000 ,
#19900
0!
0&
#20000
1!
1&
b110001 ,
#20100
0!
0&
#20200
1!
1&
b110010 ,
#20300
0!
0&
#20400
1!
1&
b110011 ,
#20500
0!
0&
#20600
1!
1&
b110100 ,
#20700
0!
0&
#20800
1!
1&
b110101 ,
#20900
0!
0&
#21000
1!
1&
b110110 ,
#21100
0!
0&
#21200
1!
1&
b110111 ,
#21300
0!
0&
#21400
1!
1&
b111000 ,
#21500
0!
0&
#21600
1!
1&
b111001 ,
#21700
0!
0&
#21800
1!
1&
b111010 ,
#21900
0!
0&
#22000
1!
1&
b111011 ,
#22100
0!
0&
#22200
1!
1&
b111100 ,
#22300
0!
0&
#22400
1!
1&
b111101 ,
#22500
0!
0&
#22600
1!
1&
b111110 ,
#22700
0!
0&
#22800
1!
1&
b111111 ,
#22900
0!
0&
#23000
1!
1&
b1000000 ,
#23100
0!
0&
#23200
1!
1&
b1000001 ,
#23300
0!
0&
#23400
1!
1&
b1000010 ,
#23500
0!
0&
#23600
1!
1&
b1000011 ,
#23700
0!
0&
#23800
1!
1&
b1000100 ,
#23900
0!
0&
#24000
1!
1&
b1000101 ,
#24100
0!
0&
#24200
1!
1&
b1000110 ,
#24300
0!
0&
#24400
1!
1&
b1000111 ,
#24500
0!
0&
#24600
1!
1&
b1001000 ,
#24700
0!
0&
#24800
1!
1&
b1001001 ,
#24900
0!
0&
#25000
1!
1&
b1001010 ,
#25100
0!
0&
#25200
1!
1&
b1001011 ,
#25300
0!
0&
#25400
1!
1&
b1 (
b1 +
#25500
0!
0&
#25600
1!
1&
b10 (
b1 *
b0 ,
#25700
0!
0&
#25800
1!
1&
b10 )
b1 ,
#25900
0!
0&
#26000
1!
1&
b10 ,
#26100
0!
0&
#26200
1!
1&
b11 ,
#26300
0!
0&
#26400
1!
1&
b100 ,
#26500
0!
0&
#26600
1!
1&
b101 ,
#26700
0!
0&
#26800
1!
1&
b110 ,
#26900
0!
0&
#27000
1!
1&
b111 ,
#27100
0!
0&
#27200
1!
1&
b1000 ,
#27300
0!
0&
#27400
1!
1&
b1001 ,
#27500
0!
0&
#27600
1!
1&
b1010 ,
#27700
0!
0&
#27800
1!
1&
b1011 ,
#27900
0!
0&
#28000
1!
1&
b1100 ,
#28100
0!
0&
#28200
1!
1&
b1101 ,
#28300
0!
0&
#28400
1!
1&
b1110 ,
#28500
0!
0&
#28600
1!
1&
b1111 ,
#28700
0!
0&
#28800
1!
1&
b10000 ,
#28900
0!
0&
#29000
1!
1&
b10001 ,
#29100
0!
0&
#29200
1!
1&
b10010 ,
#29300
0!
0&
#29400
1!
1&
b10011 ,
#29500
0!
0&
#29600
1!
1&
b10100 ,
#29700
0!
0&
#29800
1!
1&
b10101 ,
#29900
0!
0&
#30000
1!
1&
b10110 ,
#30100
0!
0&
#30200
1!
1&
b10111 ,
#30300
0!
0&
#30400
1!
1&
b11000 ,
#30500
0!
0&
#30600
1!
1&
b11001 ,
#30700
0!
0&
#30800
1!
1&
b11010 ,
#30900
0!
0&
#31000
1!
1&
b11011 ,
#31100
0!
0&
#31200
1!
1&
b11100 ,
#31300
0!
0&
#31400
1!
1&
b11101 ,
#31500
0!
0&
#31600
1!
1&
b11110 ,
#31700
0!
0&
#31800
1!
1&
b11111 ,
#31900
0!
0&
#32000
1!
1&
b100000 ,
#32100
0!
0&
#32200
1!
1&
b100001 ,
#32300
0!
0&
#32400
1!
1&
b100010 ,
#32500
0!
0&
#32600
1!
1&
b100011 ,
#32700
0!
0&
#32800
1!
1&
b100100 ,
#32900
0!
0&
#33000
1!
1&
b100101 ,
#33100
0!
0&
#33200
1!
1&
b100110 ,
#33300
0!
0&
#33400
1!
1&
b100111 ,
#33500
0!
0&
#33600
1!
1&
b101000 ,
#33700
0!
0&
#33800
1!
1&
b101001 ,
#33900
0!
0&
#34000
1!
1&
b101010 ,
#34100
0!
0&
#34200
1!
1&
b101011 ,
#34300
0!
0&
#34400
1!
1&
b101100 ,
#34500
0!
0&
#34600
1!
1&
b101101 ,
#34700
0!
0&
#34800
1!
1&
b101110 ,
#34900
0!
0&
#35000
1!
1&
b101111 ,
#35100
0!
0&
#35200
1!
1&
b110000 ,
#35300
0!
0&
#35400
1!
1&
b110001 ,
#35500
0!
0&
#35600
1!
1&
b110010 ,
#35700
0!
0&
#35800
1!
1&
b110011 ,
#35900
0!
0&
#36000
1!
1&
b110100 ,
#36100
0!
0&
#36200
1!
1&
b110101 ,
#36300
0!
0&
#36400
1!
1&
b110110 ,
#36500
0!
0&
#36600
1!
1&
b110111 ,
#36700
0!
0&
#36800
1!
1&
b111000 ,
#36900
0!
0&
#37000
1!
1&
b111001 ,
#37100
0!
0&
#37200
1!
1&
b111010 ,
#37300
0!
0&
#37400
1!
1&
b111011 ,
#37500
0!
0&
#37600
1!
1&
b111100 ,
#37700
0!
0&
#37800
1!
1&
b111101 ,
#37900
0!
0&
#38000
1!
1&
b111110 ,
#38100
0!
0&
#38200
1!
1&
b111111 ,
#38300
0!
0&
#38400
1!
1&
b1000000 ,
#38500
0!
0&
#38600
1!
1&
b1000001 ,
#38700
0!
0&
#38800
1!
1&
b1000010 ,
#38900
0!
0&
#39000
1!
1&
b1000011 ,
#39100
0!
0&
#39200
1!
1&
b1000100 ,
#39300
0!
0&
#39400
1!
1&
b1000101 ,
#39500
0!
0&
#39600
1!
1&
b1000110 ,
#39700
0!
0&
#39800
1!
1&
b1000111 ,
#39900
0!
0&
#40000
1!
1&
b1001000 ,
#40100
0!
0&
#40200
1!
1&
b1001001 ,
#40300
0!
0&
#40400
1!
1&
b1001010 ,
#40500
0!
0&
#40600
1!
1&
b1001011 ,
#40700
0!
0&
#40800
1!
1&
b1 (
b10 +
#40900
0!
0&
#41000
1!
1&
b10 (
b10 *
b0 ,
#41100
0!
0&
#41200
1!
1&
b11 )
b1 ,
#41300
0!
0&
#41400
1!
1&
b10 ,
#41500
0!
0&
#41600
1!
1&
b11 ,
#41700
0!
0&
#41800
1!
1&
b100 ,
#41900
0!
0&
#42000
1!
1&
b101 ,
#42100
0!
0&
#42200
1!
1&
b110 ,
#42300
0!
0&
#42400
1!
1&
b111 ,
#42500
0!
0&
#42600
1!
1&
b1000 ,
#42700
0!
0&
#42800
1!
1&
b1001 ,
#42900
0!
0&
#43000
1!
1&
b1010 ,
#43100
0!
0&
#43200
1!
1&
b1011 ,
#43300
0!
0&
#43400
1!
1&
b1100 ,
#43500
0!
0&
#43600
1!
1&
b1101 ,
#43700
0!
0&
#43800
1!
1&
b1110 ,
#43900
0!
0&
#44000
1!
1&
b1111 ,
#44100
0!
0&
#44200
1!
1&
b10000 ,
#44300
0!
0&
#44400
1!
1&
b10001 ,
#44500
0!
0&
#44600
1!
1&
b10010 ,
#44700
0!
0&
#44800
1!
1&
b10011 ,
#44900
0!
0&
#45000
1!
1&
b10100 ,
#45100
0!
0&
#45200
1!
1&
b10101 ,
#45300
0!
0&
#45400
1!
1&
b10110 ,
#45500
0!
0&
#45600
1!
1&
b10111 ,
#45700
0!
0&
#45800
1!
1&
b11000 ,
#45900
0!
0&
#46000
1!
1&
b11001 ,
#46100
0!
0&
#46200
1!
1&
b11010 ,
#46300
0!
0&
#46400
1!
1&
b11011 ,
#46500
0!
0&
#46600
1!
1&
b11100 ,
#46700
0!
0&
#46800
1!
1&
b11101 ,
#46900
0!
0&
#47000
1!
1&
b11110 ,
#47100
0!
0&
#47200
1!
1&
b11111 ,
#47300
0!
0&
#47400
1!
1&
b100000 ,
#47500
0!
0&
#47600
1!
1&
b100001 ,
#47700
0!
0&
#47800
1!
1&
b100010 ,
#47900
0!
0&
#48000
1!
1&
b100011 ,
#48100
0!
0&
#48200
1!
1&
b100100 ,
#48300
0!
0&
#48400
1!
1&
b100101 ,
#48500
0!
0&
#48600
1!
1&
b100110 ,
#48700
0!
0&
#48800
1!
1&
b100111 ,
#48900
0!
0&
#49000
1!
1&
b101000 ,
#49100
0!
0&
#49200
1!
1&
b101001 ,
#49300
0!
0&
#49400
1!
1&
b101010 ,
#49500
0!
0&
#49600
1!
1&
b101011 ,
#49700
0!
0&
#49800
1!
1&
b101100 ,
#49900
0!
0&
#50000
1!
1&
b101101 ,
#50100
0!
0&
#50200
1!
1&
b101110 ,
#50300
0!
0&
#50400
1!
1&
b101111 ,
#50500
0!
0&
#50600
1!
1&
b110000 ,
#50700
0!
0&
#50800
1!
1&
b110001 ,
#50900
0!
0&
#51000
1!
1&
b110010 ,
#51100
0!
0&
#51200
1!
1&
b110011 ,
#51300
0!
0&
#51400
1!
1&
b110100 ,
#51500
0!
0&
#51600
1!
1&
b110101 ,
#51700
0!
0&
#51800
1!
1&
b110110 ,
#51900
0!
0&
#52000
1!
1&
b110111 ,
#52100
0!
0&
#52200
1!
1&
b111000 ,
#52300
0!
0&
#52400
1!
1&
b111001 ,
#52500
0!
0&
#52600
1!
1&
b111010 ,
#52700
0!
0&
#52800
1!
1&
b111011 ,
#52900
0!
0&
#53000
1!
1&
b111100 ,
#53100
0!
0&
#53200
1!
1&
b111101 ,
#53300
0!
0&
#53400
1!
1&
b111110 ,
#53500
0!
0&
#53600
1!
1&
b111111 ,
#53700
0!
0&
#53800
1!
1&
b1000000 ,
#53900
0!
0&
#54000
1!
1&
b1000001 ,
#54100
0!
0&
#54200
1!
1&
b1000010 ,
#54300
0!
0&
#54400
1!
1&
b1000011 ,
#54500
0!
0&
#54600
1!
1&
b1000100 ,
#54700
0!
0&
#54800
1!
1&
b1000101 ,
#54900
0!
0&
#55000
1!
1&
b1000110 ,
#55100
0!
0&
#55200
1!
1&
b1000111 ,
#55300
0!
0&
#55400
1!
1&
b1001000 ,
#55500
0!
0&
#55600
1!
1&
b1001001 ,
#55700
0!
0&
#55800
1!
1&
b1001010 ,
#55900
0!
0&
#56000
1!
1&
b1001011 ,
#56100
0!
0&
#56200
1!
1&
b1 (
b11 +
#56300
0!
0&
#56400
1!
1&
b10 (
b11 *
b0 ,
#56500
0!
0&
#56600
1!
1&
b100 )
b1 ,
#56700
0!
0&
#56800
1!
1&
b10 ,
#56900
0!
0&
#57000
1!
1&
b11 ,
#57100
0!
0&
#57200
1!
1&
b100 ,
#57300
0!
0&
#57400
1!
1&
b101 ,
#57500
0!
0&
#57600
1!
1&
b110 ,
#57700
0!
0&
#57800
1!
1&
b111 ,
#57900
0!
0&
#58000
1!
1&
b1000 ,
#58100
0!
0&
#58200
1!
1&
b1001 ,
#58300
0!
0&
#58400
1!
1&
b1010 ,
#58500
0!
0&
#58600
1!
1&
b1011 ,
#58700
0!
0&
#58800
1!
1&
b1100 ,
#58900
0!
0&
#59000
1!
1&
b1101 ,
#59100
0!
0&
#59200
1!
1&
b1110 ,
#59300
0!
0&
#59400
1!
1&
b1111 ,
#59500
0!
0&
#59600
1!
1&
b10000 ,
#59700
0!
0&
#59800
1!
1&
b10001 ,
#59900
0!
0&
#60000
1!
1&
b10010 ,
#60100
0!
0&
#60200
1!
1&
b10011 ,
#60300
0!
0&
#60400
1!
1&
b10100 ,
#60500
0!
0&
#60600
1!
1&
b10101 ,
#60700
0!
0&
#60800
1!
1&
b10110 ,
#60900
0!
0&
#61000
1!
1&
b10111 ,
#61100
0!
0&
#61200
1!
1&
b11000 ,
#61300
0!
0&
#61400
1!
1&
b11001 ,
#61500
0!
0&
#61600
1!
1&
b11010 ,
#61700
0!
0&
#61800
1!
1&
b11011 ,
#61900
0!
0&
#62000
1!
1&
b11100 ,
#62100
0!
0&
#62200
1!
1&
b11101 ,
#62300
0!
0&
#62400
1!
1&
b11110 ,
#62500
0!
0&
#62600
1!
1&
b11111 ,
#62700
0!
0&
#62800
1!
1&
b100000 ,
#62900
0!
0&
#63000
1!
1&
b100001 ,
#63100
0!
0&
#63200
1!
1&
b100010 ,
#63300
0!
0&
#63400
1!
1&
b100011 ,
#63500
0!
0&
#63600
1!
1&
b100100 ,
#63700
0!
0&
#63800
1!
1&
b100101 ,
#63900
0!
0&
#64000
1!
1&
b100110 ,
#64100
0!
0&
#64200
1!
1&
b100111 ,
#64300
0!
0&
#64400
1!
1&
b101000 ,
#64500
0!
0&
#64600
1!
1&
b101001 ,
#64700
0!
0&
#64800
1!
1&
b101010 ,
#64900
0!
0&
#65000
1!
1&
b101011 ,
#65100
0!
0&
#65200
1!
1&
b101100 ,
#65300
0!
0&
#65400
1!
1&
b101101 ,
#65500
0!
0&
#65600
1!
1&
b101110 ,
#65700
0!
0&
#65800
1!
1&
b101111 ,
#65900
0!
0&
#66000
1!
1&
b110000 ,
#66100
0!
0&
#66200
1!
1&
b110001 ,
#66300
0!
0&
#66400
1!
1&
b110010 ,
#66500
0!
0&
#66600
1!
1&
b110011 ,
#66700
0!
0&
#66800
1!
1&
b110100 ,
#66900
0!
0&
#67000
1!
1&
b110101 ,
#67100
0!
0&
#67200
1!
1&
b110110 ,
#67300
0!
0&
#67400
1!
1&
b110111 ,
#67500
0!
0&
#67600
1!
1&
b111000 ,
#67700
0!
0&
#67800
1!
1&
b111001 ,
#67900
0!
0&
#68000
1!
1&
b111010 ,
#68100
0!
0&
#68200
1!
1&
b111011 ,
#68300
0!
0&
#68400
1!
1&
b111100 ,
#68500
0!
0&
#68600
1!
1&
b111101 ,
#68700
0!
0&
#68800
1!
1&
b111110 ,
#68900
0!
0&
#69000
1!
1&
b111111 ,
#69100
0!
0&
#69200
1!
1&
b1000000 ,
#69300
0!
0&
#69400
1!
1&
b1000001 ,
#69500
0!
0&
#69600
1!
1&
b1000010 ,
#69700
0!
0&
#69800
1!
1&
b1000011 ,
#69900
0!
0&
#70000
1!
1&
b1000100 ,
#70100
0!
0&
#70200
1!
1&
b1000101 ,
#70300
0!
0&
#70400
1!
1&
b1000110 ,
#70500
0!
0&
#70600
1!
1&
b1000111 ,
#70700
0!
0&
#70800
1!
1&
b1001000 ,
#70900
0!
0&
#71000
1!
1&
b1001001 ,
#71100
0!
0&
#71200
1!
1&
b1001010 ,
#71300
0!
0&
#71400
1!
1&
b1001011 ,
#71500
0!
0&
#71600
1!
1&
b1 (
b100 +
#71700
0!
0&
#71800
1!
1&
b10 (
b100 *
b0 ,
#71900
0!
0&
#72000
1!
1&
b101 )
b1 ,
#72100
0!
0&
#72200
1!
1&
b10 ,
#72300
0!
0&
#72400
1!
1&
b11 ,
#72500
0!
0&
#72600
1!
1&
b100 ,
#72700
0!
0&
#72800
1!
1&
b101 ,
#72900
0!
0&
#73000
1!
1&
b110 ,
#73100
0!
0&
#73200
1!
1&
b111 ,
#73300
0!
0&
#73400
1!
1&
b1000 ,
#73500
0!
0&
#73600
1!
1&
b1001 ,
#73700
0!
0&
#73800
1!
1&
b1010 ,
#73900
0!
0&
#74000
1!
1&
b1011 ,
#74100
0!
0&
#74200
1!
1&
b1100 ,
#74300
0!
0&
#74400
1!
1&
b1101 ,
#74500
0!
0&
#74600
1!
1&
b1110 ,
#74700
0!
0&
#74800
1!
1&
b1111 ,
#74900
0!
0&
#75000
1!
1&
b10000 ,
#75100
0!
0&
#75200
1!
1&
b10001 ,
#75300
0!
0&
#75400
1!
1&
b10010 ,
#75500
0!
0&
#75600
1!
1&
b10011 ,
#75700
0!
0&
#75800
1!
1&
b10100 ,
#75900
0!
0&
#76000
1!
1&
b10101 ,
#76100
0!
0&
#76200
1!
1&
b10110 ,
#76300
0!
0&
#76400
1!
1&
b10111 ,
#76500
0!
0&
#76600
1!
1&
b11000 ,
#76700
0!
0&
#76800
1!
1&
b11001 ,
#76900
0!
0&
#77000
1!
1&
b11010 ,
#77100
0!
0&
#77200
1!
1&
b11011 ,
#77300
0!
0&
#77400
1!
1&
b11100 ,
#77500
0!
0&
#77600
1!
1&
b11101 ,
#77700
0!
0&
#77800
1!
1&
b11110 ,
#77900
0!
0&
#78000
1!
1&
b11111 ,
#78100
0!
0&
#78200
1!
1&
b100000 ,
#78300
0!
0&
#78400
1!
1&
b100001 ,
#78500
0!
0&
#78600
1!
1&
b100010 ,
#78700
0!
0&
#78800
1!
1&
b100011 ,
#78900
0!
0&
#79000
1!
1&
b100100 ,
#79100
0!
0&
#79200
1!
1&
b100101 ,
#79300
0!
0&
#79400
1!
1&
b100110 ,
#79500
0!
0&
#79600
1!
1&
b100111 ,
#79700
0!
0&
#79800
1!
1&
b101000 ,
#79900
0!
0&
#80000
1!
1&
b101001 ,
#80100
0!
0&
#80200
1!
1&
b101010 ,
#80300
0!
0&
#80400
1!
1&
b101011 ,
#80500
0!
0&
#80600
1!
1&
b101100 ,
#80700
0!
0&
#80800
1!
1&
b101101 ,
#80900
0!
0&
#81000
1!
1&
b101110 ,
#81100
0!
0&
#81200
1!
1&
b101111 ,
#81300
0!
0&
#81400
1!
1&
b110000 ,
#81500
0!
0&
#81600
1!
1&
b110001 ,
#81700
0!
0&
#81800
1!
1&
b110010 ,
#81900
0!
0&
#82000
1!
1&
b110011 ,
#82100
0!
0&
#82200
1!
1&
b110100 ,
#82300
0!
0&
#82400
1!
1&
b110101 ,
#82500
0!
0&
#82600
1!
1&
b110110 ,
#82700
0!
0&
#82800
1!
1&
b110111 ,
#82900
0!
0&
#83000
1!
1&
b111000 ,
#83100
0!
0&
#83200
1!
1&
b111001 ,
#83300
0!
0&
#83400
1!
1&
b111010 ,
#83500
0!
0&
#83600
1!
1&
b111011 ,
#83700
0!
0&
#83800
1!
1&
b111100 ,
#83900
0!
0&
#84000
1!
1&
b111101 ,
#84100
0!
0&
#84200
1!
1&
b111110 ,
#84300
0!
0&
#84400
1!
1&
b111111 ,
#84500
0!
0&
#84600
1!
1&
b1000000 ,
#84700
0!
0&
#84800
1!
1&
b1000001 ,
#84900
0!
0&
#85000
1!
1&
b1000010 ,
#85100
0!
0&
#85200
1!
1&
b1000011 ,
#85300
0!
0&
#85400
1!
1&
b1000100 ,
#85500
0!
0&
#85600
1!
1&
b1000101 ,
#85700
0!
0&
#85800
1!
1&
b1000110 ,
#85900
0!
0&
#86000
1!
1&
b1000111 ,
#86100
0!
0&
#86200
1!
1&
b1001000 ,
#86300
0!
0&
#86400
1!
1&
b1001001 ,
#86500
0!
0&
#86600
1!
1&
b1001010 ,
#86700
0!
0&
#86800
1!
1&
b1001011 ,
#86900
0!
0&
#87000
1!
1&
b1 (
b101 +
#87100
0!
0&
#87200
1!
1&
b10 (
b101 *
b0 ,
#87300
0!
0&
#87400
1!
1&
b110 )
b1 ,
#87500
0!
0&
#87600
1!
1&
b111 )
b10 ,
#87700
0!
0&
#87800
1!
1&
b1000 )
b11 ,
#87900
0!
0&
#88000
1!
1&
b1001 )
b100 ,
#88100
0!
0&
#88200
1!
1&
b1010 )
b101 ,
#88300
0!
0&
#88400
1!
1&
b1011 )
b110 ,
#88500
0!
0&
#88600
1!
1&
b111 ,
#88700
0!
0&
#88800
1!
1&
b1000 ,
#88900
0!
0&
#89000
1!
1&
b1001 ,
#89100
0!
0&
#89200
1!
1&
b1010 ,
#89300
0!
0&
#89400
1!
1&
b1011 ,
#89500
0!
0&
#89600
1!
1&
b1100 ,
#89700
0!
0&
#89800
1!
1&
b1101 ,
#89900
0!
0&
#90000
1!
1&
b1110 ,
#90100
0!
0&
#90200
1!
1&
b1111 ,
#90300
0!
0&
#90400
1!
1&
b10000 ,
#90500
0!
0&
#90600
1!
1&
b10001 ,
#90700
0!
0&
#90800
1!
1&
b10010 ,
#90900
0!
0&
#91000
1!
1&
b10011 ,
#91100
0!
0&
#91200
1!
1&
b10100 ,
#91300
0!
0&
#91400
1!
1&
b10101 ,
#91500
0!
0&
#91600
1!
1&
b10110 ,
#91700
0!
0&
#91800
1!
1&
b10111 ,
#91900
0!
0&
#92000
1!
1&
b11000 ,
#92100
0!
0&
#92200
1!
1&
b11001 ,
#92300
0!
0&
#92400
1!
1&
b11010 ,
#92500
0!
0&
#92600
1!
1&
b11011 ,
#92700
0!
0&
#92800
1!
1&
b11100 ,
#92900
0!
0&
#93000
1!
1&
b11101 ,
#93100
0!
0&
#93200
1!
1&
b11110 ,
#93300
0!
0&
#93400
1!
1&
b11111 ,
#93500
0!
0&
#93600
1!
1&
b100000 ,
#93700
0!
0&
#93800
1!
1&
b100001 ,
#93900
0!
0&
#94000
1!
1&
b100010 ,
#94100
0!
0&
#94200
1!
1&
b100011 ,
#94300
0!
0&
#94400
1!
1&
b100100 ,
#94500
0!
0&
#94600
1!
1&
b100101 ,
#94700
0!
0&
#94800
1!
1&
b100110 ,
#94900
0!
0&
#95000
1!
1&
b100111 ,
#95100
0!
0&
#95200
1!
1&
b101000 ,
#95300
0!
0&
#95400
1!
1&
b101001 ,
#95500
0!
0&
#95600
1!
1&
b101010 ,
#95700
0!
0&
#95800
1!
1&
b101011 ,
#95900
0!
0&
#96000
1!
1&
b101100 ,
#96100
0!
0&
#96200
1!
1&
b101101 ,
#96300
0!
0&
#96400
1!
1&
b101110 ,
#96500
0!
0&
#96600
1!
1&
b101111 ,
#96700
0!
0&
#96800
1!
1&
b110000 ,
#96900
0!
0&
#97000
1!
1&
b110001 ,
#97100
0!
0&
#97200
1!
1&
b110010 ,
#97300
0!
0&
#97400
1!
1&
b110011 ,
#97500
0!
0&
#97600
1!
1&
b110100 ,
#97700
0!
0&
#97800
1!
1&
b110101 ,
#97900
0!
0&
#98000
1!
1&
b110110 ,
#98100
0!
0&
#98200
1!
1&
b110111 ,
#98300
0!
0&
#98400
1!
1&
b111000 ,
#98500
0!
0&
#98600
1!
1&
b111001 ,
#98700
0!
0&
#98800
1!
1&
b111010 ,
#98900
0!
0&
#99000
1!
1&
b111011 ,
#99100
0!
0&
#99200
1!
1&
b111100 ,
#99300
0!
0&
#99400
1!
1&
b111101 ,
#99500
0!
0&
#99600
1!
1&
b111110 ,
#99700
0!
0&
#99800
1!
1&
b111111 ,
#99900
0!
0&
#100000
1!
1&
b1000000 ,
#100100
0!
0&
#100200
1!
1&
b1000001 ,
#100300
0!
0&
#100400
1!
1&
b1000010 ,
#100500
0!
0&
#100600
1!
1&
b1000011 ,
#100700
0!
0&
#100800
1!
1&
b1000100 ,
#100900
0!
0&
#101000
1!
1&
b1000101 ,
#101100
0!
0&
#101200
1!
1&
b1000110 ,
#101300
0!
0&
#101400
1!
1&
b1000111 ,
#101500
0!
0&
#101600
1!
1&
b1001000 ,
#101700
0!
0&
#101800
1!
1&
b1001001 ,
#101900
0!
0&
#102000
1!
1&
b1001010 ,
#102100
0!
0&
#102200
1!
1&
b1001011 ,
#102300
0!
0&
#102400
1!
1&
b1 (
b110 +
#102500
0!
0&
#102600
1!
1&
b10 (
b1011 *
b0 ,
#102700
0!
0&
#102800
1!
1&
b1100 )
b1 ,
#102900
0!
0&
#103000
1!
1&
b1101 )
b10 ,
#103100
0!
0&
#103200
1!
1&
b1110 )
b11 ,
#103300
0!
0&
#103400
1!
1&
b1111 )
b100 ,
#103500
0!
0&
#103600
1!
1&
b10000 )
b101 ,
#103700
0!
0&
#103800
1!
1&
b10001 )
b110 ,
#103900
0!
0&
#104000
1!
1&
b10010 )
b111 ,
#104100
0!
0&
#104200
1!
1&
b10011 )
b1000 ,
#104300
0!
0&
#104400
1!
1&
b10100 )
b1001 ,
#104500
0!
0&
#104600
1!
1&
b10101 )
b1010 ,
#104700
0!
0&
#104800
1!
1&
b10110 )
b1011 ,
#104900
0!
0&
#105000
1!
1&
b10111 )
b1100 ,
#105100
0!
0&
#105200
1!
1&
b11000 )
b1101 ,
#105300
0!
0&
#105400
1!
1&
b11001 )
b1110 ,
#105500
0!
0&
